<?xml version="1.0" encoding="UTF-8" standalone="no"?>
<!-- Created with Inkscape (http://www.inkscape.org/) -->

<svg
   xmlns:dc="http://purl.org/dc/elements/1.1/"
   xmlns:cc="http://creativecommons.org/ns#"
   xmlns:rdf="http://www.w3.org/1999/02/22-rdf-syntax-ns#"
   xmlns:svg="http://www.w3.org/2000/svg"
   xmlns="http://www.w3.org/2000/svg"
   xmlns:xlink="http://www.w3.org/1999/xlink"
   xmlns:sodipodi="http://sodipodi.sourceforge.net/DTD/sodipodi-0.dtd"
   xmlns:inkscape="http://www.inkscape.org/namespaces/inkscape"
   width="21cm"
   height="29.700001cm"
   viewBox="0 0 744.09449 1052.3622"
   id="svg2"
   version="1.1"
   inkscape:version="0.91 r13725"
   sodipodi:docname="ExperimentalSetup.svg">
  <defs
     id="defs4">
    <marker
       inkscape:stockid="Arrow1Mend"
       orient="auto"
       refY="0.0"
       refX="0.0"
       id="marker4620"
       style="overflow:visible;"
       inkscape:isstock="true">
      <path
         id="path4622"
         d="M 0.0,0.0 L 5.0,-5.0 L -12.5,0.0 L 5.0,5.0 L 0.0,0.0 z "
         style="fill-rule:evenodd;stroke:#000000;stroke-width:1pt;stroke-opacity:1;fill:#000000;fill-opacity:1"
         transform="scale(0.4) rotate(180) translate(10,0)" />
    </marker>
    <marker
       inkscape:stockid="Arrow1Mend"
       orient="auto"
       refY="0.0"
       refX="0.0"
       id="marker6560"
       style="overflow:visible;"
       inkscape:isstock="true">
      <path
         id="path6562"
         d="M 0.0,0.0 L 5.0,-5.0 L -12.5,0.0 L 5.0,5.0 L 0.0,0.0 z "
         style="fill-rule:evenodd;stroke:#000000;stroke-width:1pt;stroke-opacity:1;fill:#000000;fill-opacity:1"
         transform="scale(0.4) rotate(180) translate(10,0)" />
    </marker>
    <marker
       inkscape:stockid="Arrow1Mstart"
       orient="auto"
       refY="0.0"
       refX="0.0"
       id="marker6556"
       style="overflow:visible"
       inkscape:isstock="true">
      <path
         id="path6558"
         d="M 0.0,0.0 L 5.0,-5.0 L -12.5,0.0 L 5.0,5.0 L 0.0,0.0 z "
         style="fill-rule:evenodd;stroke:#000000;stroke-width:1pt;stroke-opacity:1;fill:#000000;fill-opacity:1"
         transform="scale(0.4) translate(10,0)" />
    </marker>
    <marker
       inkscape:isstock="true"
       style="overflow:visible;"
       id="marker6535"
       refX="0.0"
       refY="0.0"
       orient="auto"
       inkscape:stockid="Arrow1Mend"
       inkscape:collect="always">
      <path
         transform="scale(0.4) rotate(180) translate(10,0)"
         style="fill-rule:evenodd;stroke:#000000;stroke-width:1pt;stroke-opacity:1;fill:#000000;fill-opacity:1"
         d="M 0.0,0.0 L 5.0,-5.0 L -12.5,0.0 L 5.0,5.0 L 0.0,0.0 z "
         id="path6537" />
    </marker>
    <marker
       inkscape:isstock="true"
       style="overflow:visible"
       id="marker6531"
       refX="0.0"
       refY="0.0"
       orient="auto"
       inkscape:stockid="Arrow1Mstart"
       inkscape:collect="always">
      <path
         transform="scale(0.4) translate(10,0)"
         style="fill-rule:evenodd;stroke:#000000;stroke-width:1pt;stroke-opacity:1;fill:#000000;fill-opacity:1"
         d="M 0.0,0.0 L 5.0,-5.0 L -12.5,0.0 L 5.0,5.0 L 0.0,0.0 z "
         id="path6533" />
    </marker>
    <linearGradient
       inkscape:collect="always"
       id="linearGradient6461">
      <stop
         style="stop-color:#9d9d9d;stop-opacity:1;"
         offset="0"
         id="stop6463" />
      <stop
         style="stop-color:#9d9d9d;stop-opacity:0;"
         offset="1"
         id="stop6465" />
    </linearGradient>
    <marker
       inkscape:isstock="true"
       style="overflow:visible"
       id="marker6410"
       refX="0.0"
       refY="0.0"
       orient="auto"
       inkscape:stockid="StopM">
      <path
         transform="scale(0.4)"
         style="fill:none;fill-opacity:0.75;fill-rule:evenodd;stroke:#000000;stroke-width:1pt;stroke-opacity:1"
         d="M 0.0,5.65 L 0.0,-5.65"
         id="path6412" />
    </marker>
    <marker
       inkscape:isstock="true"
       style="overflow:visible"
       id="marker6406"
       refX="0.0"
       refY="0.0"
       orient="auto"
       inkscape:stockid="StopM">
      <path
         transform="scale(0.4)"
         style="fill:none;fill-opacity:0.75;fill-rule:evenodd;stroke:#000000;stroke-width:1pt;stroke-opacity:1"
         d="M 0.0,5.65 L 0.0,-5.65"
         id="path6408" />
    </marker>
    <marker
       inkscape:stockid="StopM"
       orient="auto"
       refY="0.0"
       refX="0.0"
       id="marker6389"
       style="overflow:visible"
       inkscape:isstock="true"
       inkscape:collect="always">
      <path
         id="path6391"
         d="M 0.0,5.65 L 0.0,-5.65"
         style="fill:none;fill-opacity:0.75;fill-rule:evenodd;stroke:#000000;stroke-width:1pt;stroke-opacity:1"
         transform="scale(0.4)" />
    </marker>
    <marker
       inkscape:stockid="StopM"
       orient="auto"
       refY="0.0"
       refX="0.0"
       id="StopM"
       style="overflow:visible"
       inkscape:isstock="true"
       inkscape:collect="always">
      <path
         id="path6177"
         d="M 0.0,5.65 L 0.0,-5.65"
         style="fill:none;fill-opacity:0.75;fill-rule:evenodd;stroke:#000000;stroke-width:1pt;stroke-opacity:1"
         transform="scale(0.4)" />
    </marker>
    <marker
       inkscape:stockid="TriangleInS"
       orient="auto"
       refY="0.0"
       refX="0.0"
       id="TriangleInS"
       style="overflow:visible"
       inkscape:isstock="true">
      <path
         id="path6144"
         d="M 5.77,0.0 L -2.88,5.0 L -2.88,-5.0 L 5.77,0.0 z "
         style="fill-rule:evenodd;stroke:#000000;stroke-width:1pt;stroke-opacity:1;fill:#000000;fill-opacity:1"
         transform="scale(-0.2)" />
    </marker>
    <marker
       inkscape:isstock="true"
       style="overflow:visible;"
       id="marker6378"
       refX="0.0"
       refY="0.0"
       orient="auto"
       inkscape:stockid="Arrow1Send">
      <path
         transform="scale(0.2) rotate(180) translate(6,0)"
         style="fill-rule:evenodd;stroke:#000000;stroke-width:1pt;stroke-opacity:1;fill:#000000;fill-opacity:1"
         d="M 0.0,0.0 L 5.0,-5.0 L -12.5,0.0 L 5.0,5.0 L 0.0,0.0 z "
         id="path6380" />
    </marker>
    <marker
       inkscape:isstock="true"
       style="overflow:visible"
       id="marker6374"
       refX="0.0"
       refY="0.0"
       orient="auto"
       inkscape:stockid="Arrow1Sstart">
      <path
         transform="scale(0.2) translate(6,0)"
         style="fill-rule:evenodd;stroke:#000000;stroke-width:1pt;stroke-opacity:1;fill:#000000;fill-opacity:1"
         d="M 0.0,0.0 L 5.0,-5.0 L -12.5,0.0 L 5.0,5.0 L 0.0,0.0 z "
         id="path6376" />
    </marker>
    <marker
       inkscape:stockid="Arrow1Sstart"
       orient="auto"
       refY="0.0"
       refX="0.0"
       id="Arrow1Sstart"
       style="overflow:visible"
       inkscape:isstock="true"
       inkscape:collect="always">
      <path
         id="path6017"
         d="M 0.0,0.0 L 5.0,-5.0 L -12.5,0.0 L 5.0,5.0 L 0.0,0.0 z "
         style="fill-rule:evenodd;stroke:#000000;stroke-width:1pt;stroke-opacity:1;fill:#000000;fill-opacity:1"
         transform="scale(0.2) translate(6,0)" />
    </marker>
    <marker
       inkscape:stockid="Arrow1Send"
       orient="auto"
       refY="0.0"
       refX="0.0"
       id="Arrow1Send"
       style="overflow:visible;"
       inkscape:isstock="true"
       inkscape:collect="always">
      <path
         id="path6020"
         d="M 0.0,0.0 L 5.0,-5.0 L -12.5,0.0 L 5.0,5.0 L 0.0,0.0 z "
         style="fill-rule:evenodd;stroke:#000000;stroke-width:1pt;stroke-opacity:1;fill:#000000;fill-opacity:1"
         transform="scale(0.2) rotate(180) translate(6,0)" />
    </marker>
    <marker
       inkscape:stockid="Arrow1Mend"
       orient="auto"
       refY="0.0"
       refX="0.0"
       id="marker6349"
       style="overflow:visible;"
       inkscape:isstock="true">
      <path
         id="path6351"
         d="M 0.0,0.0 L 5.0,-5.0 L -12.5,0.0 L 5.0,5.0 L 0.0,0.0 z "
         style="fill-rule:evenodd;stroke:#000000;stroke-width:1pt;stroke-opacity:1;fill:#000000;fill-opacity:1"
         transform="scale(0.4) rotate(180) translate(10,0)" />
    </marker>
    <marker
       inkscape:stockid="Arrow1Mstart"
       orient="auto"
       refY="0.0"
       refX="0.0"
       id="marker6345"
       style="overflow:visible"
       inkscape:isstock="true">
      <path
         id="path6347"
         d="M 0.0,0.0 L 5.0,-5.0 L -12.5,0.0 L 5.0,5.0 L 0.0,0.0 z "
         style="fill-rule:evenodd;stroke:#000000;stroke-width:1pt;stroke-opacity:1;fill:#000000;fill-opacity:1"
         transform="scale(0.4) translate(10,0)" />
    </marker>
    <marker
       inkscape:isstock="true"
       style="overflow:visible;"
       id="marker6341"
       refX="0.0"
       refY="0.0"
       orient="auto"
       inkscape:stockid="Arrow1Mend">
      <path
         transform="scale(0.4) rotate(180) translate(10,0)"
         style="fill-rule:evenodd;stroke:#000000;stroke-width:1pt;stroke-opacity:1;fill:#000000;fill-opacity:1"
         d="M 0.0,0.0 L 5.0,-5.0 L -12.5,0.0 L 5.0,5.0 L 0.0,0.0 z "
         id="path6343" />
    </marker>
    <marker
       inkscape:isstock="true"
       style="overflow:visible"
       id="marker6337"
       refX="0.0"
       refY="0.0"
       orient="auto"
       inkscape:stockid="Arrow1Mstart">
      <path
         transform="scale(0.4) translate(10,0)"
         style="fill-rule:evenodd;stroke:#000000;stroke-width:1pt;stroke-opacity:1;fill:#000000;fill-opacity:1"
         d="M 0.0,0.0 L 5.0,-5.0 L -12.5,0.0 L 5.0,5.0 L 0.0,0.0 z "
         id="path6339" />
    </marker>
    <marker
       inkscape:isstock="true"
       style="overflow:visible;"
       id="marker6296"
       refX="0.0"
       refY="0.0"
       orient="auto"
       inkscape:stockid="Arrow1Mend"
       inkscape:collect="always">
      <path
         transform="scale(0.4) rotate(180) translate(10,0)"
         style="fill-rule:evenodd;stroke:#000000;stroke-width:1pt;stroke-opacity:1;fill:#000000;fill-opacity:1"
         d="M 0.0,0.0 L 5.0,-5.0 L -12.5,0.0 L 5.0,5.0 L 0.0,0.0 z "
         id="path6298" />
    </marker>
    <marker
       inkscape:isstock="true"
       style="overflow:visible"
       id="marker6292"
       refX="0.0"
       refY="0.0"
       orient="auto"
       inkscape:stockid="Arrow1Mstart">
      <path
         transform="scale(0.4) translate(10,0)"
         style="fill-rule:evenodd;stroke:#000000;stroke-width:1pt;stroke-opacity:1;fill:#000000;fill-opacity:1"
         d="M 0.0,0.0 L 5.0,-5.0 L -12.5,0.0 L 5.0,5.0 L 0.0,0.0 z "
         id="path6294" />
    </marker>
    <marker
       inkscape:stockid="Arrow1Mstart"
       orient="auto"
       refY="0.0"
       refX="0.0"
       id="Arrow1Mstart"
       style="overflow:visible"
       inkscape:isstock="true"
       inkscape:collect="always">
      <path
         id="path6011"
         d="M 0.0,0.0 L 5.0,-5.0 L -12.5,0.0 L 5.0,5.0 L 0.0,0.0 z "
         style="fill-rule:evenodd;stroke:#000000;stroke-width:1pt;stroke-opacity:1;fill:#000000;fill-opacity:1"
         transform="scale(0.4) translate(10,0)" />
    </marker>
    <marker
       inkscape:stockid="Arrow1Mend"
       orient="auto"
       refY="0.0"
       refX="0.0"
       id="Arrow1Mend"
       style="overflow:visible;"
       inkscape:isstock="true"
       inkscape:collect="always">
      <path
         id="path6014"
         d="M 0.0,0.0 L 5.0,-5.0 L -12.5,0.0 L 5.0,5.0 L 0.0,0.0 z "
         style="fill-rule:evenodd;stroke:#000000;stroke-width:1pt;stroke-opacity:1;fill:#000000;fill-opacity:1"
         transform="scale(0.4) rotate(180) translate(10,0)" />
    </marker>
    <linearGradient
       inkscape:collect="always"
       id="linearGradient5819">
      <stop
         style="stop-color:#000000;stop-opacity:1;"
         offset="0"
         id="stop5821" />
      <stop
         style="stop-color:#000000;stop-opacity:0;"
         offset="1"
         id="stop5823" />
    </linearGradient>
    <radialGradient
       inkscape:collect="always"
       xlink:href="#linearGradient5819"
       id="radialGradient5825"
       cx="-745.31805"
       cy="-7153.7561"
       fx="-745.31805"
       fy="-7153.7561"
       r="1048.1294"
       gradientTransform="matrix(0.99905447,0.04347617,-0.06931411,1.592794,-561.05607,4368.0744)"
       gradientUnits="userSpaceOnUse" />
    <radialGradient
       inkscape:collect="always"
       xlink:href="#linearGradient5819"
       id="radialGradient5827"
       cx="-217.66724"
       cy="-8732.1663"
       fx="-217.66724"
       fy="-8732.1663"
       r="1409.5642"
       gradientTransform="matrix(1,0,0,0.06347246,0,-8177.9143)"
       gradientUnits="userSpaceOnUse" />
    <radialGradient
       inkscape:collect="always"
       xlink:href="#linearGradient5819"
       id="radialGradient5833"
       cx="-8997.9144"
       cy="1537.7629"
       fx="-8997.9144"
       fy="1537.7629"
       r="355.21655"
       gradientTransform="matrix(1,0,0,0.25187032,0,1150.446)"
       gradientUnits="userSpaceOnUse" />
    <radialGradient
       inkscape:collect="always"
       xlink:href="#linearGradient5819"
       id="radialGradient6309"
       gradientUnits="userSpaceOnUse"
       gradientTransform="matrix(0.99905447,0.04347617,-0.06931411,1.592794,-529.02032,4441.4404)"
       cx="-745.31805"
       cy="-7153.7561"
       fx="-745.31805"
       fy="-7153.7561"
       r="1048.1294" />
    <radialGradient
       inkscape:collect="always"
       xlink:href="#linearGradient5819"
       id="radialGradient6311"
       gradientUnits="userSpaceOnUse"
       gradientTransform="matrix(0.99905447,0.04347617,-0.06931411,1.592794,-327.51624,3879.0539)"
       cx="-745.31805"
       cy="-7153.7561"
       fx="-745.31805"
       fy="-7153.7561"
       r="1048.1294" />
    <radialGradient
       inkscape:collect="always"
       xlink:href="#linearGradient5819"
       id="radialGradient6313"
       gradientUnits="userSpaceOnUse"
       gradientTransform="matrix(0.99905447,0.04347617,-0.06931411,1.592794,-259.03348,4635.5171)"
       cx="-745.31805"
       cy="-7153.7561"
       fx="-745.31805"
       fy="-7153.7561"
       r="1048.1294" />
    <linearGradient
       inkscape:collect="always"
       xlink:href="#linearGradient6461"
       id="linearGradient6467"
       x1="-11336.497"
       y1="1626.3456"
       x2="-11336.497"
       y2="1537.7629"
       gradientUnits="userSpaceOnUse"
       spreadMethod="reflect" />
    <linearGradient
       inkscape:collect="always"
       xlink:href="#linearGradient6461"
       id="linearGradient6471"
       gradientUnits="userSpaceOnUse"
       spreadMethod="reflect"
       x1="-11336.497"
       y1="1626.3456"
       x2="-11336.497"
       y2="1537.7629"
       gradientTransform="matrix(0.16393446,0,0,1,-7887.8011,8.5040328)" />
    <linearGradient
       inkscape:collect="always"
       xlink:href="#linearGradient6461"
       id="linearGradient6477"
       gradientUnits="userSpaceOnUse"
       gradientTransform="matrix(0.91803289,0,0,1,-1500.3842,-6.9140625e-5)"
       spreadMethod="reflect"
       x1="-11336.497"
       y1="1626.3456"
       x2="-11336.497"
       y2="1537.7629" />
    <linearGradient
       inkscape:collect="always"
       xlink:href="#linearGradient6461"
       id="linearGradient6481"
       gradientUnits="userSpaceOnUse"
       gradientTransform="matrix(0.69672134,0,0,1,7777.9389,-15341.093)"
       spreadMethod="reflect"
       x1="-11336.497"
       y1="1626.3456"
       x2="-11336.497"
       y2="1537.7629" />
    <linearGradient
       inkscape:collect="always"
       xlink:href="#linearGradient6461"
       id="linearGradient6485"
       gradientUnits="userSpaceOnUse"
       gradientTransform="matrix(0.69672134,0,0,1,7778.8248,-11549.754)"
       spreadMethod="reflect"
       x1="-11336.497"
       y1="1626.3456"
       x2="-11336.497"
       y2="1537.7629" />
    <linearGradient
       inkscape:collect="always"
       xlink:href="#linearGradient6461"
       id="linearGradient6489"
       gradientUnits="userSpaceOnUse"
       gradientTransform="matrix(0.65173827,0,0,1,7162.2575,-11018.258)"
       spreadMethod="reflect"
       x1="-11336.497"
       y1="1626.3456"
       x2="-11336.497"
       y2="1537.7629" />
    <linearGradient
       inkscape:collect="always"
       xlink:href="#linearGradient6461"
       id="linearGradient6493"
       gradientUnits="userSpaceOnUse"
       gradientTransform="matrix(0.67597822,0,0,1.0251208,14731.599,-6054.2841)"
       spreadMethod="reflect"
       x1="-11336.497"
       y1="1626.3456"
       x2="-11336.497"
       y2="1537.7629" />
    <linearGradient
       inkscape:collect="always"
       xlink:href="#linearGradient6461"
       id="linearGradient6509"
       x1="-3047.5154"
       y1="-7856.8325"
       x2="-2958.9326"
       y2="-7856.8325"
       gradientUnits="userSpaceOnUse"
       spreadMethod="reflect"
       gradientTransform="matrix(1.6911236,-0.40604622,0.40455053,1.6973761,7063.7402,4420.7602)" />
    <linearGradient
       inkscape:collect="always"
       xlink:href="#linearGradient6461"
       id="linearGradient6513"
       gradientUnits="userSpaceOnUse"
       gradientTransform="matrix(0.41185026,-0.84910185,0.83448025,0.42290692,6201.498,-5594.9738)"
       spreadMethod="reflect"
       x1="-3047.5154"
       y1="-7856.8325"
       x2="-2958.9326"
       y2="-7856.8325" />
    <linearGradient
       inkscape:collect="always"
       xlink:href="#linearGradient6461"
       id="linearGradient6517"
       gradientUnits="userSpaceOnUse"
       gradientTransform="matrix(0.91782799,0,0,1,-1502.2641,-2835.5316)"
       spreadMethod="reflect"
       x1="-11336.497"
       y1="1626.3456"
       x2="-11336.497"
       y2="1537.7629" />
  </defs>
  <sodipodi:namedview
     id="base"
     pagecolor="#ffffff"
     bordercolor="#666666"
     borderopacity="1.0"
     inkscape:pageopacity="0.0"
     inkscape:pageshadow="2"
     inkscape:zoom="0.09821815"
     inkscape:cx="-932.1409"
     inkscape:cy="8005.8764"
     inkscape:document-units="cm"
     inkscape:current-layer="layer8"
     showgrid="false"
     units="cm"
     inkscape:window-width="1643"
     inkscape:window-height="937"
     inkscape:window-x="-8"
     inkscape:window-y="-8"
     inkscape:window-maximized="1"
     inkscape:showpageshadow="true"
     showborder="false"
     inkscape:snap-bbox="true"
     inkscape:bbox-paths="true"
     inkscape:bbox-nodes="true"
     inkscape:snap-bbox-edge-midpoints="true"
     inkscape:snap-bbox-midpoints="true"
     inkscape:snap-grids="false"
     inkscape:snap-object-midpoints="true"
     inkscape:snap-global="true"
     inkscape:object-nodes="false" />
  <metadata
     id="metadata7">
    <rdf:RDF>
      <cc:Work
         rdf:about="">
        <dc:format>image/svg+xml</dc:format>
        <dc:type
           rdf:resource="http://purl.org/dc/dcmitype/StillImage" />
        <dc:title />
      </cc:Work>
    </rdf:RDF>
  </metadata>
  <g
     inkscape:label="Ebene 1"
     inkscape:groupmode="layer"
     id="layer1"
     style="display:none"
     sodipodi:insensitive="true">
    <text
       xml:space="preserve"
       style="font-style:normal;font-weight:normal;font-size:180px;line-height:125%;font-family:sans-serif;letter-spacing:0px;word-spacing:0px;fill:#000000;fill-opacity:1;stroke:none;stroke-width:1px;stroke-linecap:butt;stroke-linejoin:miter;stroke-opacity:1"
       x="1175"
       y="-7047.6377"
       id="text4253"
       sodipodi:linespacing="125%"><tspan
         sodipodi:role="line"
         id="tspan4255"
         x="1175"
         y="-7047.6377" /></text>
    <rect
       style="opacity:1;fill:#00b2ff;fill-opacity:1;fill-rule:nonzero;stroke:none;stroke-width:4.53543329;stroke-miterlimit:4;stroke-dasharray:none;stroke-dashoffset:0;stroke-opacity:1"
       id="rect6440"
       width="158.38583"
       height="531.49603"
       x="-3325.7563"
       y="-9839.625" />
    <g
       transform="matrix(1,0,0,1.614152,5287.6027,325.336)"
       id="g6321">
      <g
         id="g6539"
         transform="translate(-3781.0187,523.55012)">
        <g
           id="g6564">
          <path
             style="fill:none;fill-rule:evenodd;stroke:#000000;stroke-width:11.93659306;stroke-linecap:butt;stroke-linejoin:miter;stroke-miterlimit:4;stroke-dasharray:none;stroke-opacity:1;marker-start:url(#marker6556);marker-end:url(#marker6560)"
             d="m 4092.93,-9781.7363 0,3520.7081"
             id="path6323"
             inkscape:connector-curvature="0" />
          <text
             xml:space="preserve"
             style="font-style:normal;font-weight:normal;font-size:152.0745697px;line-height:125%;font-family:sans-serif;letter-spacing:0px;word-spacing:0px;fill:#000000;fill-opacity:1;stroke:none;stroke-width:1px;stroke-linecap:butt;stroke-linejoin:miter;stroke-opacity:1"
             x="-11029.32"
             y="-3095.2927"
             id="text6325"
             sodipodi:linespacing="125%"
             transform="matrix(0,0.74648124,-1.3396184,0,0,0)"><tspan
               sodipodi:role="line"
               x="-11029.32"
               y="-3095.2927"
               id="tspan6525">162cm</tspan></text>
        </g>
      </g>
    </g>
    <g
       transform="translate(-203.51467,-3465.4962)"
       id="g6361">
      <path
         inkscape:connector-curvature="0"
         id="path6331"
         d="m 4087.3768,-6311.6309 0,86.3446"
         style="fill:none;fill-rule:evenodd;stroke:#000000;stroke-width:15.16535378;stroke-linecap:butt;stroke-linejoin:miter;stroke-miterlimit:4;stroke-dasharray:none;stroke-opacity:1;marker-start:url(#Arrow1Sstart);marker-end:url(#Arrow1Send)" />
      <text
         sodipodi:linespacing="125%"
         id="text6333"
         y="-6270.5034"
         x="4106.1924"
         style="font-style:normal;font-weight:normal;font-size:75.29571533px;line-height:125%;font-family:sans-serif;letter-spacing:0px;word-spacing:0px;fill:#000000;fill-opacity:1;stroke:none;stroke-width:1px;stroke-linecap:butt;stroke-linejoin:miter;stroke-opacity:1"
         xml:space="preserve"><tspan
           y="-6270.5034"
           x="4106.1924"
           sodipodi:role="line"
           id="tspan6357">3,5cm</tspan></text>
    </g>
    <g
       transform="translate(223.91114,-3143.3782)"
       id="g6393">
      <path
         style="fill:none;fill-rule:evenodd;stroke:#000000;stroke-width:15.16535473;stroke-linecap:butt;stroke-linejoin:miter;stroke-miterlimit:4;stroke-dasharray:none;stroke-opacity:1;marker-start:url(#StopM);marker-end:url(#marker6389)"
         d="m 4401.0275,-6644.8355 0,116.7593"
         id="path6368"
         inkscape:connector-curvature="0" />
      <text
         xml:space="preserve"
         style="font-style:normal;font-weight:normal;font-size:75.29571533px;line-height:125%;font-family:sans-serif;letter-spacing:0px;word-spacing:0px;fill:#000000;fill-opacity:1;stroke:none;stroke-width:1px;stroke-linecap:butt;stroke-linejoin:miter;stroke-opacity:1"
         x="4415.7646"
         y="-6565.6768"
         id="text6370"
         sodipodi:linespacing="125%"><tspan
           id="tspan6372"
           sodipodi:role="line"
           x="4415.7646"
           y="-6565.6768">3,5cm</tspan></text>
    </g>
    <g
       id="g6414"
       transform="translate(349.44372,-4224.4436)">
      <g
         transform="translate(-451.58201,1353.6169)"
         id="g6398">
        <g
           id="g6433"
           transform="translate(-141.99253,-73.078383)">
          <path
             inkscape:connector-curvature="0"
             id="path6400"
             d="m 4371.6372,-6533.2828 0,10.1436"
             style="fill:none;fill-rule:evenodd;stroke:#000000;stroke-width:4.53543329;stroke-linecap:butt;stroke-linejoin:miter;stroke-miterlimit:4;stroke-dasharray:none;stroke-opacity:1;marker-start:url(#marker6406);marker-end:url(#marker6410)" />
          <text
             sodipodi:linespacing="125%"
             id="text6402"
             y="-6521.9512"
             x="4383.1138"
             style="font-style:normal;font-weight:normal;font-size:75.29571533px;line-height:125%;font-family:sans-serif;letter-spacing:0px;word-spacing:0px;fill:#000000;fill-opacity:1;stroke:none;stroke-width:1px;stroke-linecap:butt;stroke-linejoin:miter;stroke-opacity:1"
             xml:space="preserve"><tspan
               style="font-size:20px"
               y="-6521.9512"
               x="4383.1138"
               sodipodi:role="line"
               id="tspan6404">0,5cm</tspan></text>
        </g>
      </g>
    </g>
  </g>
  <g
     inkscape:groupmode="layer"
     id="layer4"
     inkscape:label="frame"
     style="display:none;opacity:0.20800003"
     sodipodi:insensitive="true">
    <rect
       style="opacity:1;fill:#9d9d9d;fill-opacity:1;fill-rule:nonzero;stroke:none;stroke-width:1.77165353;stroke-miterlimit:4;stroke-dasharray:none;stroke-dashoffset:0;stroke-opacity:1"
       id="rect4180"
       width="3011.811"
       height="177.16536"
       x="-1626.3456"
       y="-13497.914" />
    <rect
       y="1449.1802"
       x="-13497.914"
       height="177.16536"
       width="4322.8345"
       id="rect4182"
       style="opacity:1;fill:url(#linearGradient6467);fill-opacity:1;fill-rule:nonzero;stroke:none;stroke-width:1.77165353;stroke-miterlimit:4;stroke-dasharray:none;stroke-dashoffset:0;stroke-opacity:1"
       transform="matrix(0,1,-1,0,0,0)" />
    <rect
       transform="matrix(0,1,-1,0,0,0)"
       style="opacity:1;fill:#9d9d9d;fill-opacity:1;fill-rule:nonzero;stroke:url(#radialGradient5833);stroke-width:1.77165353;stroke-miterlimit:4;stroke-dasharray:none;stroke-dashoffset:0;stroke-opacity:1"
       id="rect4188"
       width="708.66144"
       height="177.16536"
       x="-9352.2451"
       y="1449.1802" />
    <rect
       y="-9352.2451"
       x="-1626.3456"
       height="177.16536"
       width="3011.811"
       id="rect4199"
       style="opacity:1;fill:#9d9d9d;fill-opacity:1;fill-rule:nonzero;stroke:none;stroke-width:1.77165353;stroke-miterlimit:4;stroke-dasharray:none;stroke-dashoffset:0;stroke-opacity:1" />
    <rect
       style="opacity:1;fill:#9d9d9d;fill-opacity:1;fill-rule:nonzero;stroke:url(#radialGradient5827);stroke-width:1.77165353;stroke-miterlimit:4;stroke-dasharray:none;stroke-dashoffset:0;stroke-opacity:1"
       id="rect4203"
       width="2817.3567"
       height="177.16536"
       x="-1626.3456"
       y="-8820.749" />
    <g
       id="g4211"
       transform="matrix(0.96520267,0.26150294,-0.26150294,0.96520267,-2349.5091,149.26211)"
       style="stroke:url(#radialGradient5825);stroke-opacity:1">
      <rect
         transform="matrix(0.97946941,0.20159283,-0.20159283,0.97946941,0,0)"
         style="opacity:1;fill:#9d9d9d;fill-opacity:1;fill-rule:nonzero;stroke:url(#radialGradient6309);stroke-width:1.77165353;stroke-miterlimit:4;stroke-dasharray:none;stroke-dashoffset:0;stroke-opacity:1"
         id="rect4205"
         width="1984.252"
         height="177.16536"
         x="-2899.3975"
         y="-5587.5244" />
      <rect
         transform="matrix(0.05923372,-0.99824414,0.99824414,0.05923372,0,0)"
         y="-2139.1833"
         x="5789.2114"
         height="177.16536"
         width="2923.2283"
         id="rect4207"
         style="opacity:1;fill:#9d9d9d;fill-opacity:1;fill-rule:nonzero;stroke:url(#radialGradient6311);stroke-width:1.77165353;stroke-miterlimit:4;stroke-dasharray:none;stroke-dashoffset:0;stroke-opacity:1" />
      <rect
         transform="matrix(0.47867179,0.87799392,-0.87799392,0.47867179,0,0)"
         style="opacity:1;fill:#9d9d9d;fill-opacity:1;fill-rule:nonzero;stroke:url(#radialGradient6313);stroke-width:1.77165353;stroke-miterlimit:4;stroke-dasharray:none;stroke-dashoffset:0;stroke-opacity:1"
         id="rect4209"
         width="3702.7559"
         height="177.16536"
         x="-8448.5918"
         y="-2930.8943" />
    </g>
    <rect
       transform="matrix(0,1,-1,0,0,0)"
       style="opacity:1;fill:#9d9d9d;fill-opacity:1;fill-rule:nonzero;stroke:none;stroke-width:1.77165353;stroke-miterlimit:4;stroke-dasharray:none;stroke-dashoffset:0;stroke-opacity:1"
       id="rect5987"
       width="4322.8345"
       height="177.16536"
       x="-13497.028"
       y="-1386.3513" />
  </g>
  <g
     inkscape:groupmode="layer"
     id="layer7"
     inkscape:label="frame 1"
     sodipodi:insensitive="true">
    <rect
       transform="matrix(0,1,-1,0,0,0)"
       style="opacity:1;fill:url(#linearGradient6471);fill-opacity:1;fill-rule:nonzero;stroke:none;stroke-width:1.77165353;stroke-miterlimit:4;stroke-dasharray:none;stroke-dashoffset:0;stroke-opacity:1"
       id="rect6469"
       width="708.6615"
       height="177.16536"
       x="-10100.574"
       y="1457.6841" />
    <rect
       y="1449.1802"
       x="-13891.913"
       height="177.16536"
       width="3968.5042"
       id="rect6475"
       style="opacity:1;fill:url(#linearGradient6477);fill-opacity:1;fill-rule:nonzero;stroke:none;stroke-width:1.77165353;stroke-miterlimit:4;stroke-dasharray:none;stroke-dashoffset:0;stroke-opacity:1"
       transform="matrix(0,1,-1,0,0,0)" />
    <rect
       y="-13891.913"
       x="-1626.3456"
       height="177.16536"
       width="3011.811"
       id="rect6479"
       style="opacity:1;fill:url(#linearGradient6481);fill-opacity:1;fill-rule:nonzero;stroke:none;stroke-width:1.77165353;stroke-miterlimit:4;stroke-dasharray:none;stroke-dashoffset:0;stroke-opacity:1" />
    <rect
       style="opacity:1;fill:url(#linearGradient6485);fill-opacity:1;fill-rule:nonzero;stroke:none;stroke-width:1.77165353;stroke-miterlimit:4;stroke-dasharray:none;stroke-dashoffset:0;stroke-opacity:1"
       id="rect6483"
       width="3011.811"
       height="177.16536"
       x="-1625.4597"
       y="-10100.574" />
    <rect
       y="-9569.0781"
       x="-1634.8495"
       height="177.16536"
       width="2817.3567"
       id="rect6487"
       style="opacity:1;fill:url(#linearGradient6489);fill-opacity:1;fill-rule:nonzero;stroke:none;stroke-width:1.77165353;stroke-miterlimit:4;stroke-dasharray:none;stroke-dashoffset:0;stroke-opacity:1" />
    <rect
       style="opacity:1;fill:url(#linearGradient6493);fill-opacity:1;fill-rule:nonzero;stroke:none;stroke-width:1.77165353;stroke-miterlimit:4;stroke-dasharray:none;stroke-dashoffset:0;stroke-opacity:1"
       id="rect6491"
       width="2922.1421"
       height="181.61591"
       x="5607.2354"
       y="-4568.707"
       transform="matrix(0.31783067,-0.94814749,0.94524585,0.32635914,0,0)" />
    <path
       style="fill:none;fill-rule:evenodd;stroke:url(#linearGradient6509);stroke-width:177.16532898;stroke-linecap:butt;stroke-linejoin:miter;stroke-miterlimit:4;stroke-dasharray:none;stroke-opacity:1"
       d="m -1548.2605,-9516.2268 859.18772,3604.901"
       id="path6501"
       inkscape:connector-curvature="0" />
    <path
       inkscape:connector-curvature="0"
       id="path6511"
       d="m -2459.6488,-6854.3341 1772.27586,898.1732"
       style="fill:none;fill-rule:evenodd;stroke:url(#linearGradient6513);stroke-width:177.16532898;stroke-linecap:butt;stroke-linejoin:miter;stroke-miterlimit:4;stroke-dasharray:none;stroke-opacity:1" />
    <rect
       transform="matrix(0,1,-1,0,0,0)"
       style="opacity:1;fill:url(#linearGradient6517);fill-opacity:1;fill-rule:nonzero;stroke:none;stroke-width:1.77165353;stroke-miterlimit:4;stroke-dasharray:none;stroke-dashoffset:0;stroke-opacity:1"
       id="rect6515"
       width="3967.6184"
       height="177.16536"
       x="-13891.027"
       y="-1386.3513" />
  </g>
  <g
     inkscape:groupmode="layer"
     id="layer2"
     inkscape:label="Beam"
     sodipodi:insensitive="true">
    <g
       id="g4190"
       transform="matrix(1.76403,0,0,1.76403,17715.37,8658.7436)">
      <path
         inkscape:connector-curvature="0"
         id="path4186"
         d="m -9919.6667,-13406.556 0,7308.6545"
         style="opacity:0.16199999;fill:none;fill-rule:evenodd;stroke:#0029ff;stroke-width:813.50054932;stroke-linecap:butt;stroke-linejoin:miter;stroke-miterlimit:4;stroke-dasharray:none;stroke-opacity:1" />
      <path
         style="fill:none;fill-rule:evenodd;stroke:#0029ff;stroke-width:10.04321575;stroke-linecap:butt;stroke-linejoin:miter;stroke-miterlimit:4;stroke-dasharray:none;stroke-opacity:1"
         d="m -9919.6667,-13406.556 0,7308.6545"
         id="path4188"
         inkscape:connector-curvature="0" />
    </g>
    <rect
       style="display:inline;opacity:0.428;fill:#ff0000;fill-opacity:1;fill-rule:nonzero;stroke:none;stroke-width:15.16535473;stroke-miterlimit:4;stroke-dasharray:none;stroke-dashoffset:0;stroke-opacity:1"
       id="rect6315"
       width="3188.9763"
       height="1125.7207"
       x="-1377.7078"
       y="-15070.823" />
    <rect
       style="display:inline;opacity:1;fill:#00b2ff;fill-opacity:0.30034132;fill-rule:nonzero;stroke:none;stroke-width:15.16535473;stroke-miterlimit:4;stroke-dasharray:none;stroke-dashoffset:0;stroke-opacity:1"
       id="rect6317"
       width="1417.3229"
       height="70.866142"
       x="-491.88104"
       y="-13705.653" />
  </g>
  <g
     inkscape:groupmode="layer"
     id="layer3"
     inkscape:label="Cal and Sci"
     sodipodi:insensitive="true">
    <g
       id="g4236"
       transform="matrix(0.89100652,-0.4539905,0.4539905,0.89100652,793.47202,-1641.8351)">
      <g
         transform="translate(1590.9903,671.75144)"
         id="g4161">
        <g
           id="g4155">
          <rect
             y="-3875.0168"
             x="372.74393"
             height="2611.4172"
             width="2147.2441"
             id="rect4136"
             style="opacity:1;fill:#ff0000;fill-opacity:1;fill-rule:nonzero;stroke:none;stroke-width:1.77165353;stroke-miterlimit:4;stroke-dasharray:none;stroke-dashoffset:0;stroke-opacity:1" />
          <rect
             y="-4239.9775"
             x="-59.539524"
             height="364.96063"
             width="3011.811"
             id="rect4138"
             style="opacity:1;fill:#ff0000;fill-opacity:1;fill-rule:nonzero;stroke:none;stroke-width:1.77165353;stroke-miterlimit:4;stroke-dasharray:none;stroke-dashoffset:0;stroke-opacity:1" />
          <rect
             style="opacity:1;fill:#ff0000;fill-opacity:1;fill-rule:nonzero;stroke:none;stroke-width:1.77165353;stroke-miterlimit:4;stroke-dasharray:none;stroke-dashoffset:0;stroke-opacity:1"
             id="rect4140"
             width="375.59055"
             height="437.59842"
             x="372.74399"
             y="-1263.5996" />
          <rect
             y="-1263.5996"
             x="2144.3975"
             height="437.59842"
             width="375.59055"
             id="rect4142"
             style="opacity:1;fill:#ff0000;fill-opacity:1;fill-rule:nonzero;stroke:none;stroke-width:1.77165353;stroke-miterlimit:4;stroke-dasharray:none;stroke-dashoffset:0;stroke-opacity:1" />
        </g>
        <g
           id="g4150"
           transform="translate(-4.9591064e-5,-1002.7559)">
          <rect
             y="-2741.1587"
             x="383.37396"
             height="1771.6536"
             width="2125.9841"
             id="rect4144"
             style="opacity:1;fill:#0012ff;fill-opacity:1;fill-rule:nonzero;stroke:none;stroke-width:1.77165353;stroke-miterlimit:4;stroke-dasharray:none;stroke-dashoffset:0;stroke-opacity:1" />
          <rect
             y="-3237.2217"
             x="383.37396"
             height="354.33072"
             width="2125.9841"
             id="rect4146"
             style="opacity:1;fill:#0012ff;fill-opacity:1;fill-rule:nonzero;stroke:none;stroke-width:1.77165353;stroke-miterlimit:4;stroke-dasharray:none;stroke-dashoffset:0;stroke-opacity:1" />
          <rect
             style="opacity:1;fill:#0012ff;fill-opacity:1;fill-rule:nonzero;stroke:none;stroke-width:1.77165353;stroke-miterlimit:4;stroke-dasharray:none;stroke-dashoffset:0;stroke-opacity:1"
             id="rect4148"
             width="177.16536"
             height="283.46457"
             x="2509.3579"
             y="-2705.7258" />
          <rect
             y="-2705.7258"
             x="206.20851"
             height="283.46457"
             width="177.16536"
             id="rect6282"
             style="opacity:1;fill:#0012ff;fill-opacity:1;fill-rule:nonzero;stroke:none;stroke-width:1.77165353;stroke-miterlimit:4;stroke-dasharray:none;stroke-dashoffset:0;stroke-opacity:1" />
        </g>
      </g>
      <rect
         y="-3178.4624"
         x="2624.1406"
         height="35.433071"
         width="826.43109"
         id="rect4216"
         style="opacity:1;fill:#000000;fill-opacity:1;fill-rule:nonzero;stroke:none;stroke-width:1.77165353;stroke-miterlimit:4;stroke-dasharray:none;stroke-dashoffset:0;stroke-opacity:1" />
      <rect
         style="opacity:1;fill:#bc6a00;fill-opacity:1;fill-rule:nonzero;stroke:none;stroke-width:1.77165353;stroke-miterlimit:4;stroke-dasharray:none;stroke-dashoffset:0;stroke-opacity:1"
         id="rect4218"
         width="708.66144"
         height="21.968504"
         x="2683.0256"
         y="-3632.3604" />
      <rect
         y="-3685.5098"
         x="2624.1406"
         height="35.433071"
         width="826.43109"
         id="rect4220"
         style="opacity:1;fill:#000000;fill-opacity:1;fill-rule:nonzero;stroke:none;stroke-width:1.77165353;stroke-miterlimit:4;stroke-dasharray:none;stroke-dashoffset:0;stroke-opacity:1" />
    </g>
    <g
       id="g4228"
       transform="matrix(0.89879405,0.43837115,-0.43837115,0.89879405,-1954.8761,-3830.5492)">
      <g
         style="fill:#c5c5c5;fill-opacity:1"
         transform="translate(3818.3766,2280.4194)"
         id="g4176">
        <rect
           style="opacity:1;fill:#c5c5c5;fill-opacity:1;fill-rule:nonzero;stroke:none;stroke-width:1.77165353;stroke-miterlimit:4;stroke-dasharray:none;stroke-dashoffset:0;stroke-opacity:1"
           id="rect4172"
           width="602.36218"
           height="283.46457"
           x="-4649.2271"
           y="-5524.353" />
        <rect
           style="opacity:1;fill:#c5c5c5;fill-opacity:1;fill-rule:nonzero;stroke:none;stroke-width:1.77165353;stroke-miterlimit:4;stroke-dasharray:none;stroke-dashoffset:0;stroke-opacity:1"
           id="rect4174"
           width="354.33072"
           height="602.36218"
           x="-4525.2114"
           y="-5240.8887" />
      </g>
      <rect
         style="opacity:1;fill:#000000;fill-opacity:1;fill-rule:nonzero;stroke:none;stroke-width:1.77165353;stroke-miterlimit:4;stroke-dasharray:none;stroke-dashoffset:0;stroke-opacity:1"
         id="rect4222"
         width="826.43109"
         height="35.433071"
         x="-942.88489"
         y="-3297.0835" />
      <rect
         y="-3343.501"
         x="-848.56702"
         height="21.968504"
         width="637.79529"
         id="rect4224"
         style="opacity:1;fill:#bc6a00;fill-opacity:1;fill-rule:nonzero;stroke:none;stroke-width:1.77165353;stroke-miterlimit:4;stroke-dasharray:none;stroke-dashoffset:0;stroke-opacity:1" />
      <rect
         style="opacity:1;fill:#000000;fill-opacity:1;fill-rule:nonzero;stroke:none;stroke-width:1.77165353;stroke-miterlimit:4;stroke-dasharray:none;stroke-dashoffset:0;stroke-opacity:1"
         id="rect4226"
         width="826.44092"
         height="35.433071"
         x="-942.88489"
         y="-3474.249" />
    </g>
    <rect
       style="opacity:1;fill:#000000;fill-opacity:1;fill-rule:nonzero;stroke:none;stroke-width:1.77165353;stroke-miterlimit:4;stroke-dasharray:none;stroke-dashoffset:0;stroke-opacity:1"
       id="rect4335"
       width="354.33072"
       height="35.433071"
       x="39.615051"
       y="-13262.749" />
    <rect
       style="opacity:1;fill:#000000;fill-opacity:1;fill-rule:nonzero;stroke:none;stroke-width:1.77165353;stroke-miterlimit:4;stroke-dasharray:none;stroke-dashoffset:0;stroke-opacity:1"
       id="rect4339"
       width="826.44092"
       height="35.433071"
       x="-196.44005"
       y="-13032.434" />
    <rect
       y="-8009.5093"
       x="-202.52121"
       height="35.433071"
       width="826.44092"
       id="rect6319"
       style="opacity:1;fill:#000000;fill-opacity:1;fill-rule:nonzero;stroke:none;stroke-width:1.77165353;stroke-miterlimit:4;stroke-dasharray:none;stroke-dashoffset:0;stroke-opacity:1" />
    <rect
       y="-3738.5415"
       x="-314.71564"
       height="35.433071"
       width="1062.9921"
       id="rect6521"
       style="opacity:1;fill:#000000;fill-opacity:1;fill-rule:nonzero;stroke:none;stroke-width:1.77165353;stroke-miterlimit:4;stroke-dasharray:none;stroke-dashoffset:0;stroke-opacity:1" />
  </g>
  <g
     inkscape:groupmode="layer"
     id="layer6"
     inkscape:label="Target"
     sodipodi:insensitive="true">
    <rect
       y="-9506.8438"
       x="-48.967606"
       height="35.433071"
       width="531.49603"
       id="rect4347"
       style="opacity:1;fill:#000000;fill-opacity:1;fill-rule:nonzero;stroke:none;stroke-width:1.77165353;stroke-miterlimit:4;stroke-dasharray:none;stroke-dashoffset:0;stroke-opacity:1" />
  </g>
  <g
     inkscape:groupmode="layer"
     id="layer5"
     inkscape:label="measurements"
     sodipodi:insensitive="true">
    <g
       id="g4312"
       transform="translate(6058.6817,-2368.1197)">
      <g
         transform="matrix(-1,0,0,1,-11670.248,0)"
         id="g4307">
        <path
           style="opacity:1;fill:#cacaca;fill-opacity:1;fill-rule:nonzero;stroke:#000000;stroke-width:14.17322826;stroke-miterlimit:4;stroke-dasharray:none;stroke-dashoffset:0;stroke-opacity:1"
           id="path4262"
           sodipodi:type="arc"
           sodipodi:cx="-5828.3467"
           sodipodi:cy="-7103.291"
           sodipodi:rx="1771.6536"
           sodipodi:ry="1771.6536"
           sodipodi:start="1.5707963"
           sodipodi:end="2.0420352"
           d="m -5828.3466,-5331.6375 a 1771.6536,1771.6536 0 0 1 -804.3139,-193.0986 l 804.3138,-1578.5549 z" />
        <text
           transform="scale(-1,1)"
           xml:space="preserve"
           style="font-style:normal;font-weight:normal;font-size:308.34945679px;line-height:125%;font-family:sans-serif;letter-spacing:0px;word-spacing:0px;fill:#000000;fill-opacity:1;stroke:none;stroke-width:1px;stroke-linecap:butt;stroke-linejoin:miter;stroke-opacity:1"
           x="5892.5542"
           y="-5567.6377"
           id="text4271"
           sodipodi:linespacing="125%"><tspan
             sodipodi:role="line"
             x="5892.5542"
             y="-5567.6377"
             id="tspan4275">27°</tspan></text>
      </g>
      <g
         transform="matrix(-1,0,0,1,-11389.063,15.944656)"
         id="g4302">
        <path
           style="opacity:1;fill:#cacaca;fill-opacity:1;fill-rule:nonzero;stroke:#000000;stroke-width:14.17322826;stroke-miterlimit:4;stroke-dasharray:none;stroke-dashoffset:0;stroke-opacity:1"
           id="path4289"
           sodipodi:type="arc"
           sodipodi:cx="5532.9883"
           sodipodi:cy="-7119.291"
           sodipodi:rx="1771.6536"
           sodipodi:ry="1771.6536"
           sodipodi:start="1.5707963"
           sodipodi:end="2.0245819"
           d="m 5532.9883,-5347.6375 a 1771.6536,1771.6536 0 0 1 -776.6418,-179.3018 l 776.6418,-1592.3517 z"
           transform="scale(-1,1)" />
        <text
           transform="scale(-1,1)"
           sodipodi:linespacing="125%"
           id="text4294"
           y="-5567.6377"
           x="4912.5542"
           style="font-style:normal;font-weight:normal;font-size:308.34945679px;line-height:125%;font-family:sans-serif;letter-spacing:0px;word-spacing:0px;fill:#000000;fill-opacity:1;stroke:none;stroke-width:1px;stroke-linecap:butt;stroke-linejoin:miter;stroke-opacity:1"
           xml:space="preserve"><tspan
             y="-5567.6377"
             x="4912.5542"
             sodipodi:role="line"
             id="tspan4298">26°</tspan></text>
      </g>
    </g>
    <path
       style="fill:none;fill-rule:evenodd;stroke:#000000;stroke-width:11.62204742;stroke-linecap:butt;stroke-linejoin:miter;stroke-miterlimit:4;stroke-dasharray:none;stroke-opacity:1"
       d="m 204.7435,-9474.8336 -2827.8454,5785.6334 0,0"
       id="path4322"
       inkscape:connector-curvature="0" />
    <path
       inkscape:connector-curvature="0"
       id="path4325"
       d="m 215.14415,-9474.7516 2918.77235,5740.2988 0,0"
       style="fill:none;fill-rule:evenodd;stroke:#000000;stroke-width:11.62204742;stroke-linecap:butt;stroke-linejoin:miter;stroke-miterlimit:4;stroke-dasharray:none;stroke-opacity:1" />
    <g
       id="g6273"
       transform="matrix(0.89100652,-0.4539905,0.4539905,0.89100652,1017.1026,1122.1657)">
      <path
         inkscape:connector-curvature="0"
         id="path5999"
         d="m 4092.93,-9781.7363 0,3520.7081"
         style="fill:none;fill-rule:evenodd;stroke:#000000;stroke-width:15.16535568;stroke-linecap:butt;stroke-linejoin:miter;stroke-miterlimit:4;stroke-dasharray:none;stroke-opacity:1;marker-start:url(#Arrow1Mstart);marker-end:url(#Arrow1Mend)" />
      <text
         transform="matrix(0,1,-1,0,0,0)"
         sodipodi:linespacing="125%"
         id="text6265"
         y="-4133.4746"
         x="-8332.7783"
         style="font-style:normal;font-weight:normal;font-size:180px;line-height:125%;font-family:sans-serif;letter-spacing:0px;word-spacing:0px;fill:#000000;fill-opacity:1;stroke:none;stroke-width:1px;stroke-linecap:butt;stroke-linejoin:miter;stroke-opacity:1"
         xml:space="preserve"><tspan
           id="tspan6269"
           y="-4133.4746"
           x="-8332.7783"
           sodipodi:role="line">101cm</tspan></text>
    </g>
    <g
       transform="translate(-970.63136,138.29275)"
       id="g6284">
      <g
         id="g6304"
         transform="matrix(0.89879405,0.43837115,-0.43837115,0.89879405,-6352.0716,-3508.0991)">
        <path
           inkscape:connector-curvature="0"
           id="path6286"
           d="m 4092.93,-8762.5936 0,2509.8818"
           style="fill:none;fill-rule:evenodd;stroke:#000000;stroke-width:15.16535568;stroke-linecap:butt;stroke-linejoin:miter;stroke-miterlimit:4;stroke-dasharray:none;stroke-opacity:1;marker-start:url(#marker6292);marker-end:url(#marker6296)" />
        <text
           transform="matrix(0,-1,1,0,0,0)"
           sodipodi:linespacing="125%"
           id="text6288"
           y="4052.3855"
           x="7196.2563"
           style="font-style:normal;font-weight:normal;font-size:180px;line-height:125%;font-family:sans-serif;letter-spacing:0px;word-spacing:0px;fill:#000000;fill-opacity:1;stroke:none;stroke-width:1px;stroke-linecap:butt;stroke-linejoin:miter;stroke-opacity:1"
           xml:space="preserve"><tspan
             id="tspan6300"
             y="4052.3855"
             x="7196.2563"
             sodipodi:role="line">72cm</tspan></text>
      </g>
    </g>
    <g
       style="display:inline"
       transform="matrix(1,0,0,0.97486793,-3837.6673,-3431.7679)"
       id="g6544">
      <path
         style="fill:none;fill-rule:evenodd;stroke:#000000;stroke-width:15.35959339;stroke-linecap:butt;stroke-linejoin:miter;stroke-miterlimit:4;stroke-dasharray:none;stroke-opacity:1;marker-start:url(#marker6531);marker-end:url(#marker6535)"
         d="m 4092.93,-9781.7363 0,3520.7081"
         id="path6546"
         inkscape:connector-curvature="0" />
      <text
         xml:space="preserve"
         style="font-style:normal;font-weight:normal;font-size:180px;line-height:125%;font-family:sans-serif;letter-spacing:0px;word-spacing:0px;fill:#000000;fill-opacity:1;stroke:none;stroke-width:1px;stroke-linecap:butt;stroke-linejoin:miter;stroke-opacity:1"
         x="-8332.7783"
         y="-4133.4746"
         id="text6548"
         sodipodi:linespacing="125%"
         transform="matrix(0,1,-1,0,0,0)"><tspan
           sodipodi:role="line"
           x="-8332.7783"
           y="-4133.4746"
           id="tspan6550">98,5cm</tspan></text>
    </g>
    <g
       style="display:inline"
       id="g6580"
       transform="matrix(1,0,0,1.614152,-72.040758,5503.5355)">
      <g
         transform="translate(-3781.0187,523.55012)"
         id="g6582">
        <g
           id="g6584">
          <path
             inkscape:connector-curvature="0"
             id="path6586"
             d="m 4092.93,-9781.7363 0,3520.7081"
             style="fill:none;fill-rule:evenodd;stroke:#000000;stroke-width:11.93659306;stroke-linecap:butt;stroke-linejoin:miter;stroke-miterlimit:4;stroke-dasharray:none;stroke-opacity:1;marker-start:url(#marker6556);marker-end:url(#marker6560)" />
          <text
             transform="matrix(0,0.74648124,-1.3396184,0,0,0)"
             sodipodi:linespacing="125%"
             id="text6588"
             y="-3095.2927"
             x="-11029.32"
             style="font-style:normal;font-weight:normal;font-size:152.0745697px;line-height:125%;font-family:sans-serif;letter-spacing:0px;word-spacing:0px;fill:#000000;fill-opacity:1;stroke:none;stroke-width:1px;stroke-linecap:butt;stroke-linejoin:miter;stroke-opacity:1"
             xml:space="preserve"><tspan
               id="tspan6590"
               y="-3095.2927"
               x="-11029.32"
               sodipodi:role="line">162cm</tspan></text>
        </g>
      </g>
    </g>
  </g>
  <g
     inkscape:groupmode="layer"
     id="layer8"
     inkscape:label="label">
    <text
       xml:space="preserve"
       style="font-style:normal;font-weight:normal;font-size:180px;line-height:125%;font-family:sans-serif;letter-spacing:0px;word-spacing:0px;fill:#000000;fill-opacity:1;stroke:none;stroke-width:1px;stroke-linecap:butt;stroke-linejoin:miter;stroke-opacity:1"
       x="-977.13873"
       y="-13209.3"
       id="text4560"
       sodipodi:linespacing="125%"><tspan
         sodipodi:role="line"
         id="tspan4562"
         x="-977.13873"
         y="-13209.3">ScBCM1</tspan></text>
    <text
       sodipodi:linespacing="125%"
       id="text4564"
       y="-12949.3"
       x="-977.13873"
       style="font-style:normal;font-weight:normal;font-size:180px;line-height:125%;font-family:sans-serif;letter-spacing:0px;word-spacing:0px;fill:#000000;fill-opacity:1;stroke:none;stroke-width:1px;stroke-linecap:butt;stroke-linejoin:miter;stroke-opacity:1"
       xml:space="preserve"><tspan
         y="-12949.3"
         x="-977.13873"
         id="tspan4566"
         sodipodi:role="line">ScBCM2</tspan></text>
    <text
       xml:space="preserve"
       style="font-style:normal;font-weight:normal;font-size:180px;line-height:125%;font-family:sans-serif;letter-spacing:0px;word-spacing:0px;fill:#000000;fill-opacity:1;stroke:none;stroke-width:1px;stroke-linecap:butt;stroke-linejoin:miter;stroke-opacity:1"
       x="-719.13873"
       y="-9407.2998"
       id="text4568"
       sodipodi:linespacing="125%"><tspan
         sodipodi:role="line"
         id="tspan4570"
         x="-719.13873"
         y="-9407.2998">target</tspan></text>
    <text
       sodipodi:linespacing="125%"
       id="text4572"
       y="-6044.2964"
       x="-4848.02"
       style="font-style:normal;font-weight:normal;font-size:180px;line-height:125%;font-family:sans-serif;letter-spacing:0px;word-spacing:0px;fill:#000000;fill-opacity:1;stroke:none;stroke-width:1px;stroke-linecap:butt;stroke-linejoin:miter;stroke-opacity:1"
       xml:space="preserve"
       transform="matrix(0.89879405,0.43837115,-0.43837115,0.89879405,0,0)"><tspan
         y="-6044.2964"
         x="-4848.02"
         sodipodi:role="line"
         id="tspan4576">ScS1</tspan></text>
    <text
       xml:space="preserve"
       style="font-style:normal;font-weight:normal;font-size:180px;line-height:125%;font-family:sans-serif;letter-spacing:0px;word-spacing:0px;fill:#000000;fill-opacity:1;stroke:none;stroke-width:1px;stroke-linecap:butt;stroke-linejoin:miter;stroke-opacity:1"
       x="-4847.0938"
       y="-5677.2466"
       id="text4580"
       sodipodi:linespacing="125%"
       transform="matrix(0.89879405,0.43837115,-0.43837115,0.89879405,0,0)"><tspan
         id="tspan4582"
         sodipodi:role="line"
         x="-4847.0938"
         y="-5677.2466">ScS2</tspan></text>
    <text
       sodipodi:linespacing="125%"
       id="text4584"
       y="-5883.7139"
       x="-4692.1611"
       style="font-style:normal;font-weight:normal;font-size:180px;line-height:125%;font-family:sans-serif;letter-spacing:0px;word-spacing:0px;fill:#000000;fill-opacity:1;stroke:none;stroke-width:1px;stroke-linecap:butt;stroke-linejoin:miter;stroke-opacity:1"
       xml:space="preserve"
       transform="matrix(0.89879405,0.43837115,-0.43837115,0.89879405,0,0)"><tspan
         y="-5883.7139"
         x="-4692.1611"
         sodipodi:role="line"
         id="tspan4586">Cu</tspan></text>
    <text
       sodipodi:linespacing="125%"
       id="text4588"
       y="-5615.1333"
       x="-4214.6802"
       style="font-style:normal;font-weight:normal;font-size:180px;line-height:125%;font-family:sans-serif;letter-spacing:0px;word-spacing:0px;fill:#000000;fill-opacity:1;stroke:none;stroke-width:1px;stroke-linecap:butt;stroke-linejoin:miter;stroke-opacity:1"
       xml:space="preserve"
       transform="matrix(0.89879405,0.43837115,-0.43837115,0.89879405,0,0)"><tspan
         y="-5615.1333"
         x="-4214.6802"
         sodipodi:role="line"
         id="tspan4590">SCalo</tspan></text>
    <text
       sodipodi:linespacing="125%"
       id="text4592"
       y="-4859.4961"
       x="4791.3311"
       style="font-style:normal;font-weight:normal;font-size:180px;line-height:125%;font-family:sans-serif;letter-spacing:0px;word-spacing:0px;fill:#000000;fill-opacity:1;stroke:none;stroke-width:1px;stroke-linecap:butt;stroke-linejoin:miter;stroke-opacity:1"
       xml:space="preserve"
       transform="matrix(0.89100652,-0.4539905,0.4539905,0.89100652,0,0)"><tspan
         y="-4859.4961"
         x="4791.3311"
         id="tspan4594"
         sodipodi:role="line">ScB1</tspan></text>
    <text
       xml:space="preserve"
       style="font-style:normal;font-weight:normal;font-size:180px;line-height:125%;font-family:sans-serif;letter-spacing:0px;word-spacing:0px;fill:#000000;fill-opacity:1;stroke:none;stroke-width:1px;stroke-linecap:butt;stroke-linejoin:miter;stroke-opacity:1"
       x="4969.897"
       y="-4694.4395"
       id="text4596"
       sodipodi:linespacing="125%"
       transform="matrix(0.89100652,-0.4539905,0.4539905,0.89100652,0,0)"><tspan
         sodipodi:role="line"
         id="tspan4598"
         x="4969.897"
         y="-4694.4395">Cu</tspan></text>
    <text
       sodipodi:linespacing="125%"
       id="text4600"
       y="-4188.6265"
       x="4914.1519"
       style="font-style:normal;font-weight:normal;font-size:180px;line-height:125%;font-family:sans-serif;letter-spacing:0px;word-spacing:0px;fill:#ffffff;fill-opacity:1;stroke:none;stroke-width:1px;stroke-linecap:butt;stroke-linejoin:miter;stroke-opacity:1"
       xml:space="preserve"
       transform="matrix(0.89100652,-0.4539905,0.4539905,0.89100652,0,0)"><tspan
         y="-4188.6265"
         x="4914.1519"
         id="tspan4602"
         sodipodi:role="line">ScB1</tspan></text>
    <text
       transform="matrix(0.89100652,-0.4539905,0.4539905,0.89100652,0,0)"
       xml:space="preserve"
       style="font-style:normal;font-weight:normal;font-size:180px;line-height:125%;font-family:sans-serif;letter-spacing:0px;word-spacing:0px;fill:#ffffff;fill-opacity:1;stroke:none;stroke-width:1px;stroke-linecap:butt;stroke-linejoin:miter;stroke-opacity:1"
       x="4305.8047"
       y="-2994.6709"
       id="text4604"
       sodipodi:linespacing="125%"><tspan
         sodipodi:role="line"
         id="tspan4606"
         x="4305.8047"
         y="-2994.6709">BCalo</tspan></text>
    <text
       sodipodi:linespacing="125%"
       id="text4608"
       y="-3801.2998"
       x="-719.13873"
       style="font-style:normal;font-weight:normal;font-size:180px;line-height:125%;font-family:sans-serif;letter-spacing:0px;word-spacing:0px;fill:#000000;fill-opacity:1;stroke:none;stroke-width:1px;stroke-linecap:butt;stroke-linejoin:miter;stroke-opacity:1"
       xml:space="preserve"><tspan
         y="-3801.2998"
         x="-719.13873"
         id="tspan4610"
         sodipodi:role="line">ScVeto</tspan></text>
    <path
       style="fill:none;fill-rule:evenodd;stroke:#000000;stroke-width:70.86614227;stroke-linecap:butt;stroke-linejoin:miter;stroke-miterlimit:4;stroke-dasharray:none;stroke-opacity:1;marker-end:url(#marker4620)"
       d="m 216.7804,-15405.139 0,1324.681"
       id="path4612"
       inkscape:connector-curvature="0" />
    <text
       sodipodi:linespacing="125%"
       id="text5140"
       y="-15447.688"
       x="-39.113155"
       style="font-style:normal;font-weight:normal;font-size:180px;line-height:125%;font-family:sans-serif;letter-spacing:0px;word-spacing:0px;fill:#000000;fill-opacity:1;stroke:none;stroke-width:1px;stroke-linecap:butt;stroke-linejoin:miter;stroke-opacity:1"
       xml:space="preserve"><tspan
         y="-15447.688"
         x="-39.113155"
         id="tspan5142"
         sodipodi:role="line">beam</tspan></text>
  </g>
</svg>
