%!PS-Adobe-2.0 EPSF-2.0
%%BoundingBox:  0 0 567 386
%%Title: Plots_stella_root5/BCalo_integral_VS_Scalo_integral_2gamma_TimeCut_05.eps: BCalo_integral_VS_SCalo_integral_with_2gamma_logicCuts_4timingCuts- 0.5#sigma
%%Creator: ROOT Version 5.34/30
%%CreationDate: Sun May 13 15:05:04 2018
%%EndComments
%%BeginProlog
80 dict begin
/s {stroke} def /l {lineto} def /m {moveto} def /t {translate} def
/r {rotate} def /rl {roll}  def /R {repeat} def
/d {rlineto} def /rm {rmoveto} def /gr {grestore} def /f {eofill} def
/c {setrgbcolor} def /black {0 setgray} def /sd {setdash} def
/cl {closepath} def /sf {scalefont setfont} def /lw {setlinewidth} def
/box {m dup 0 exch d exch 0 d 0 exch neg d cl} def
/NC{systemdict begin initclip end}def/C{NC box clip newpath}def
/bl {box s} def /bf {gsave box gsave f grestore 1 lw [] 0 sd s grestore} def /Y { 0 exch d} def /X { 0 d} def 
/K {{pop pop 0 moveto} exch kshow} bind def
/ita {/ang 15 def gsave [1 0 ang dup sin exch cos div 1 0 0] concat} def 
/mp {newpath /y exch def /x exch def} def
/side {[w .77 mul w .23 mul] .385 w mul sd w 0 l currentpoint t -144 r} def
/mr {mp x y w2 0 360 arc} def /m24 {mr s} def /m20 {mr f} def
/mb {mp x y w2 add m w2 neg 0 d 0 w neg d w 0 d 0 w d cl} def
/mt {mp x y w2 add m w2 neg w neg d w 0 d cl} def
/m21 {mb f} def /m25 {mb s} def /m22 {mt f} def /m26{mt s} def
/m23 {mp x y w2 sub m w2 w d w neg 0 d cl f} def
/m27 {mp x y w2 add m w3 neg w2 neg d w3 w2 neg d w3 w2 d cl s} def
/m28 {mp x w2 sub y w2 sub w3 add m w3 0 d  0 w3 neg d w3 0 d 0 w3 d w3 0 d  0 w3 d w3 neg 0 d 0 w3 d w3 neg 0 d 0 w3 neg d w3 neg 0 d cl s } def
/m29 {mp gsave x w2 sub y w2 add w3 sub m currentpoint t 4 {side} repeat cl fill gr} def
/m30 {mp gsave x w2 sub y w2 add w3 sub m currentpoint t 4 {side} repeat cl s gr} def
/m31 {mp x y w2 sub m 0 w d x w2 sub y m w 0 d x w2 sub y w2 add m w w neg d x w2 sub y w2 sub m w w d s} def
/m32 {mp x y w2 sub m w2 w d w neg 0 d cl s} def
/m33 {mp x y w2 add m w3 neg w2 neg d w3 w2 neg d w3 w2 d cl f} def
/m34 {mp x w2 sub y w2 sub w3 add m w3 0 d  0 w3 neg d w3 0 d 0 w3 d w3 0 d  0 w3 d w3 neg 0 d 0 w3 d w3 neg 0 d 0 w3 neg d w3 neg 0 d cl f } def
/m2 {mp x y w2 sub m 0 w d x w2 sub y m w 0 d s} def
/m5 {mp x w2 sub y w2 sub m w w d x w2 sub y w2 add m w w neg d s} def
/reEncode {exch findfont dup length dict begin {1 index /FID eq  {pop pop} {def} ifelse } forall /Encoding exch def currentdict end dup /FontName get exch definefont pop } def [/Times-Bold /Times-Italic /Times-BoldItalic /Helvetica /Helvetica-Oblique
 /Helvetica-Bold /Helvetica-BoldOblique /Courier /Courier-Oblique /Courier-Bold /Courier-BoldOblique /Times-Roman /AvantGarde-Book /AvantGarde-BookOblique /AvantGarde-Demi /AvantGarde-DemiOblique /Bookman-Demi /Bookman-DemiItalic /Bookman-Light
 /Bookman-LightItalic /Helvetica-Narrow /Helvetica-Narrow-Bold /Helvetica-Narrow-BoldOblique /Helvetica-Narrow-Oblique /NewCenturySchlbk-Roman /NewCenturySchlbk-Bold /NewCenturySchlbk-BoldItalic /NewCenturySchlbk-Italic /Palatino-Bold
 /Palatino-BoldItalic /Palatino-Italic /Palatino-Roman ] {ISOLatin1Encoding reEncode } forall
%%EndProlog
%%BeginSetup
%%EndSetup
newpath  gsave  .25 .25 scale  gsave  0 0 t black[  ] 0 sd 3 lw 1 1 1 c 2268 1544 0 0 bf black 1 1 1 c 1633 1112 408 278 bf black 1633 1112 408 278 bl 1 1 1 c 1633 1112 408 278 bf black 1633 1112 408 278 bl /w 2 def /w2 {w 2 div} def /w3 {w 3 div}
 def 1074 306 757 352 653 362 722 366 799 371 608 373 577 380 1069 376 631 383 695 382 689 387 962 386 1381 385 602 391 649 392 657 389 734 391 1392 390 558 393 690 393 723 396 755 395 788 394 549 398 571 400 586 401 596 400 617 398 786 397 785 400
 821 399 965 400 570 402 629 404 733 404 1116 403 559 408 562 405 678 407 943 407 1054 407 1486 408 598 410 613 409 687 410 633 413 658 417 684 414 705 414 564 419 774 417 777 421 995 418 1020 420 565 424 582 422 709 423 715 423 951 422 1189 424 562
 425 622 426 800 427 942 427 547 431 617 433 630 432 697 430 748 431 770 433 603 437 621 434 710 436 746 436 910 434 1085 436 581 439 586 440 612 441 627 439 691 441 704 438 740 439 1052 439 1056 439 1145 441 1193 440 597 444 829 443 885 444 901 443
 1066 443 1361 443 545 449 648 448 742 447 789 449 809 447 855 446 875 446 100 { m20} R 903 448 1135 448 1349 447 586 453 592 450 632 451 721 453 769 450 800 450 932 450 557 454 645 455 920 457 987 454 563 459 577 459 596 458 633 462 1021 460 1172
 460 577 463 621 463 704 462 897 464 967 466 1302 465 630 470 679 467 817 470 884 469 967 469 1039 467 1280 468 1605 469 574 471 597 470 708 473 779 474 584 477 589 477 598 478 628 476 703 477 726 478 760 478 962 475 552 480 651 480 692 479 551 486
 557 484 633 484 700 484 714 483 811 485 894 483 916 485 1054 486 1225 486 1430 483 572 489 700 490 856 489 920 487 940 488 1105 488 906 491 960 494 1168 493 1267 492 627 497 637 495 1077 499 596 501 604 500 611 500 719 502 722 502 989 503 546 504
 595 507 1334 503 558 509 579 507 1184 509 1243 507 1391 511 593 511 633 511 645 513 647 511 916 514 1181 513 1199 515 616 519 664 519 717 517 804 516 1006 516 1059 516 100 { m20} R 611 522 662 522 764 522 586 525 605 524 673 526 694 526 775 527 969
 524 568 529 565 528 586 531 634 528 758 535 931 535 1015 532 576 539 826 536 1240 539 596 540 666 540 673 541 683 540 685 543 608 547 1084 547 602 550 829 550 922 548 575 553 579 553 629 554 645 553 651 556 648 553 762 552 794 555 879 554 564 558
 561 559 584 560 598 558 721 557 1161 558 1163 557 547 561 579 561 588 564 611 560 643 564 648 562 683 563 710 561 900 561 918 564 575 564 637 568 695 566 728 566 769 565 835 568 569 572 601 571 658 569 724 571 868 568 1440 571 554 573 575 574 572
 574 711 574 927 576 944 575 588 580 630 579 730 578 1008 578 1060 577 592 584 632 581 708 584 723 584 757 582 843 585 564 585 583 587 593 585 623 586 621 586 643 588 1748 587 566 591 592 590 603 591 1221 589 566 596 602 593 651 596 675 595 864 594
 100 { m20} R 551 600 559 600 585 601 588 601 587 597 759 599 773 600 781 597 982 597 546 601 573 603 614 604 621 601 631 601 630 603 641 603 747 605 921 604 992 602 1218 605 551 606 560 607 585 607 592 608 633 607 738 606 825 607 840 606 888 607
 1555 607 549 610 606 613 605 612 712 612 811 610 844 613 1042 611 1050 610 680 617 692 615 801 617 826 617 843 617 949 616 1103 614 716 619 588 623 621 621 668 622 672 625 682 623 698 622 715 625 1229 625 1332 624 551 628 550 626 563 626 579 629 613
 626 704 626 781 628 956 629 997 628 1051 629 1192 627 1214 628 1278 629 568 634 575 633 576 632 601 630 622 630 740 631 785 630 862 632 977 632 993 630 1070 630 1245 632 1378 633 565 634 583 637 598 635 609 635 674 635 693 634 708 636 716 636 724
 635 735 637 766 636 788 638 789 634 827 636 853 638 1043 636 1232 635 1372 635 1408 636 100 { m20} R 565 638 583 639 624 640 801 641 804 639 830 639 898 638 1186 640 1288 641 1372 639 554 644 595 644 609 642 699 645 748 646 816 645 950 644 1304 646
 547 648 554 648 555 649 569 648 571 649 634 650 633 647 644 649 690 649 794 648 829 648 899 648 895 647 975 649 986 648 1004 649 1061 649 1310 648 1395 647 556 652 557 651 574 651 578 651 586 653 582 652 617 654 698 651 706 653 715 652 748 653 792
 652 839 653 881 653 905 651 917 650 1043 651 1379 651 1418 652 1668 653 602 656 615 657 646 657 658 658 694 655 736 655 781 656 836 654 874 655 997 656 1097 658 1112 655 1493 657 700 662 711 661 753 659 800 660 856 660 903 660 908 660 911 660 1016
 659 1014 661 1049 658 1171 662 1179 659 1252 660 1424 659 1894 662 544 664 545 664 560 666 570 666 574 663 572 665 624 666 656 666 669 663 677 665 697 665 715 663 721 665 722 663 100 { m20} R 744 663 777 665 785 663 808 665 817 664 830 664 886 663
 920 666 954 663 978 663 1005 666 1010 665 1038 663 1220 664 1250 665 1255 666 576 670 582 670 599 667 630 669 647 670 656 667 665 668 695 669 696 670 728 667 740 668 740 670 747 667 749 667 756 667 790 667 802 670 814 669 843 669 842 668 879 667 892
 669 972 667 562 674 588 671 633 672 651 674 651 672 652 672 666 673 683 674 702 674 702 671 719 673 719 674 731 672 749 674 755 671 782 674 798 674 819 671 822 673 829 672 841 672 929 672 935 673 933 672 969 671 1063 671 1153 673 1177 672 1218 672
 1219 672 1235 674 1289 672 1340 671 1422 671 1544 671 551 677 583 675 596 676 604 675 609 677 611 676 619 678 622 678 646 678 665 678 669 678 723 676 754 676 775 678 815 678 829 678 852 675 895 677 936 676 1009 679 1061 678 1078 678 1082 675 1113
 677 1151 676 1175 675 100 { m20} R 1265 677 1310 676 1535 677 1611 678 561 681 585 682 583 682 589 681 605 682 639 679 663 681 679 682 694 682 698 682 731 682 752 680 756 681 780 680 793 680 823 679 840 679 846 681 844 682 882 680 886 679 909 680
 921 681 931 681 930 683 938 680 946 680 1040 682 1049 682 1100 679 1148 679 1157 680 1163 679 1169 679 1234 679 1231 683 1300 682 1435 680 1559 680 1684 680 553 687 607 685 612 683 625 686 656 683 659 683 663 684 667 686 675 683 678 687 679 683 732
 684 738 685 762 686 838 683 837 687 925 684 942 685 961 685 967 684 974 683 1093 685 1143 686 1147 684 1186 686 1184 685 1206 687 1297 685 1303 683 1430 685 1496 687 1553 686 589 687 627 689 627 688 646 688 718 687 762 691 792 688 797 688 801 687
 807 687 811 687 809 691 859 691 868 688 887 691 897 689 914 687 964 688 976 690 1015 691 1050 689 1053 687 1078 689 1077 687 100 { m20} R 1154 688 1155 688 1199 688 1304 689 1315 690 1335 689 1360 691 1401 689 1453 688 1463 689 548 694 554 691 564
 694 580 694 583 693 615 691 622 692 621 695 627 695 632 694 653 693 655 692 657 693 663 691 668 692 671 695 677 694 700 692 715 695 734 694 772 694 811 695 816 694 817 695 823 693 849 694 848 694 854 691 858 693 878 692 906 692 928 691 939 693 991
 693 989 695 1001 694 1009 693 1032 694 1074 691 1075 692 1081 693 1112 694 1137 693 1173 692 1186 695 1206 692 1244 692 1250 694 1296 692 1358 692 1382 692 1392 692 1402 692 561 696 603 698 617 695 620 698 628 698 631 697 635 696 705 696 725 697 735
 698 743 696 741 698 746 698 795 695 800 698 822 697 839 696 835 699 843 696 865 698 878 696 874 698 887 695 896 698 901 696 915 697 927 696 927 696 946 697 997 695 1002 699 1004 697 1019 698 1019 698 1032 695 1056 698 1074 695 100 { m20} R 1085 695
 1100 695 1124 698 1156 698 1157 698 1174 697 1181 697 1247 696 1264 697 1282 696 1296 697 1322 699 1391 699 1389 698 1448 697 1472 695 550 699 555 703 556 702 572 700 583 700 590 701 587 700 595 702 599 699 599 703 610 700 630 699 641 703 648 702
 684 702 692 703 700 701 701 703 704 700 744 702 763 699 760 701 781 703 798 702 810 702 821 701 823 702 851 703 855 702 871 700 877 700 884 700 894 700 890 701 916 700 924 702 939 699 1013 702 1020 702 1029 700 1041 700 1049 701 1077 699 1095 702
 1107 701 1113 700 1135 701 1151 703 1159 699 1164 701 1208 703 1212 703 1258 702 1300 702 1329 699 1340 701 1345 703 1359 702 1365 702 1455 699 1502 702 1641 703 548 706 561 704 565 707 573 706 581 706 587 704 589 705 597 703 607 705 607 705 629 707
 627 705 642 706 651 706 653 703 671 704 679 707 681 705 688 707 698 704 732 705 733 706 100 { m20} R 742 706 748 705 750 704 763 703 775 707 804 704 806 704 820 704 836 704 849 706 865 704 883 705 903 706 925 703 931 707 939 706 955 704 961 703 967
 706 988 707 1006 706 1019 705 1038 707 1058 705 1094 706 1094 705 1137 706 1158 704 1177 705 1188 706 1255 707 1253 704 1271 705 1282 704 1311 704 1320 703 1335 706 1342 705 1342 706 1347 704 1460 705 601 707 621 708 628 708 643 707 643 710 692 707
 696 708 710 708 715 709 721 708 737 709 765 708 778 708 787 708 817 710 824 709 832 708 836 710 850 711 855 710 853 709 871 709 887 709 887 709 898 708 896 710 895 709 922 711 925 707 941 710 946 709 956 709 964 709 971 709 981 711 988 710 1005 711
 1023 710 1087 708 1101 711 1101 711 1135 709 1137 709 1148 708 1151 711 1173 708 1171 708 1248 709 1260 711 1271 710 1281 709 1354 710 1419 709 1442 709 1446 709 1499 708 1582 710 563 714 566 712 100 { m20} R 567 711 587 715 598 713 612 712 622 711
 626 712 640 714 644 715 657 712 673 712 677 712 682 714 684 713 691 714 693 714 709 713 710 714 709 712 717 714 735 714 763 712 760 713 772 715 779 713 777 712 785 714 790 715 799 712 818 713 816 714 822 713 834 712 838 715 868 714 872 713 876 713
 874 714 909 714 935 714 946 715 958 713 981 713 1012 712 1022 715 1026 714 1046 712 1057 713 1065 713 1069 712 1074 713 1080 713 1082 715 1115 714 1145 713 1169 712 1168 714 1174 713 1182 713 1189 713 1205 713 1205 715 1222 713 1229 712 1240 714
 1237 714 1264 712 1273 713 1269 712 1275 715 1286 711 1290 712 1315 713 1410 715 1425 713 1441 714 1511 714 1569 713 1795 713 548 717 545 718 545 717 555 716 557 718 560 719 574 717 572 717 580 716 579 716 578 719 584 716 587 716 613 716 623 718 635
 717 641 718 643 718 645 717 653 718 662 716 666 717 100 { m20} R 674 716 687 718 700 719 720 719 717 716 723 716 731 719 731 716 737 718 739 717 742 717 742 717 742 719 747 718 758 719 758 719 768 717 801 719 809 716 819 716 847 719 886 717 898 717
 904 718 907 717 912 718 914 719 912 719 927 717 929 718 938 715 961 719 972 716 972 719 971 718 981 719 979 718 999 716 1013 718 1012 718 1009 718 1032 719 1066 718 1075 716 1088 718 1088 718 1089 717 1093 717 1119 716 1118 716 1137 719 1138 719
 1152 718 1160 719 1213 717 1217 719 1250 719 1262 719 1296 719 1306 716 1305 717 1312 718 1337 715 1352 718 1391 719 1409 717 1409 716 1420 718 1450 717 1671 718 550 720 552 723 574 723 589 723 594 722 613 720 620 721 633 722 645 722 657 720 666 721
 679 723 685 722 718 721 721 723 724 723 725 723 732 720 733 720 744 723 798 723 803 720 804 721 810 720 816 722 829 721 845 721 849 720 863 721 891 721 100 { m20} R 895 722 890 722 900 720 915 722 920 722 924 720 934 723 982 720 1023 721 1023 721
 1028 721 1034 720 1043 723 1042 723 1070 722 1073 720 1076 723 1081 722 1085 723 1093 720 1110 722 1106 722 1115 720 1114 721 1112 720 1116 720 1121 722 1134 723 1143 721 1141 723 1139 721 1159 720 1186 721 1187 722 1202 720 1205 723 1212 721 1215
 721 1227 723 1267 720 1273 724 1293 721 1304 722 1347 720 1351 722 1393 721 1422 724 1460 722 1483 720 1485 722 1504 723 1511 722 1535 720 545 724 554 727 570 725 573 725 573 727 577 724 582 726 590 727 596 725 596 725 598 725 618 727 634 725 635
 725 655 727 685 727 694 724 699 724 696 725 726 724 743 726 745 727 761 726 783 727 791 727 806 726 805 727 814 726 813 727 810 727 817 725 821 724 819 726 831 725 833 727 840 725 868 726 876 724 880 727 889 727 906 727 910 725 930 724 932 725 936
 727 939 727 939 726 100 { m20} R 948 726 953 725 952 727 951 726 956 727 982 724 993 727 1002 726 1010 724 1013 727 1032 725 1055 725 1063 725 1062 727 1072 725 1098 726 1125 726 1136 724 1138 726 1154 725 1156 727 1161 726 1179 725 1184 724 1205
 725 1213 724 1218 725 1234 724 1237 724 1239 727 1237 724 1241 726 1265 726 1266 726 1266 726 1270 726 1292 726 1308 724 1326 726 1336 727 1391 724 1397 725 1398 727 1444 726 1480 726 1487 725 1505 726 1541 725 1551 724 1558 727 1565 725 1697 726
 555 729 556 728 562 728 572 729 571 730 584 731 588 728 590 731 596 729 604 728 628 731 633 728 638 732 651 729 648 732 680 729 684 730 715 730 716 729 724 728 733 730 737 728 742 730 754 729 761 731 769 730 767 730 806 730 806 731 820 729 820 728
 840 731 846 729 858 730 873 729 879 728 889 730 893 732 897 732 906 731 915 731 919 729 919 731 927 729 931 730 933 731 945 731 957 729 100 { m20} R 966 728 974 729 974 729 991 728 995 732 1025 729 1025 732 1032 730 1040 729 1041 731 1043 729 1045
 730 1049 728 1050 728 1058 732 1071 731 1088 730 1119 729 1141 730 1144 728 1161 729 1170 730 1174 730 1195 730 1218 729 1215 728 1221 731 1246 729 1255 731 1261 729 1264 731 1272 729 1276 728 1293 728 1289 729 1290 729 1300 730 1302 728 1321 730
 1317 729 1317 731 1326 730 1452 730 1505 730 1512 730 1557 728 1574 731 1588 728 1587 730 574 732 586 735 587 732 592 735 611 734 611 736 614 734 616 732 624 734 636 734 640 735 650 735 651 736 667 736 673 735 668 733 680 734 689 732 698 735 713 735
 723 735 727 736 729 733 739 732 743 733 746 732 750 734 751 733 764 734 768 735 767 735 774 733 780 735 785 732 799 734 803 736 813 733 835 735 859 735 866 735 870 735 875 733 879 733 892 736 895 733 905 732 932 732 946 734 950 733 958 732 974 735
 100 { m20} R 973 733 977 733 984 735 994 733 1023 734 1027 735 1033 733 1040 732 1039 732 1043 734 1046 736 1064 734 1076 733 1082 735 1089 733 1131 735 1151 732 1167 734 1185 734 1188 732 1196 735 1220 732 1244 734 1258 734 1290 734 1291 734 1294
 735 1310 733 1307 733 1307 733 1317 732 1325 736 1350 733 1354 734 1414 736 1431 734 1448 734 1469 733 1524 733 1524 735 1599 732 545 740 575 740 595 738 612 739 615 740 622 739 628 740 640 738 648 737 654 739 655 737 663 738 671 736 677 736 675 736
 679 737 687 739 693 738 699 736 701 738 702 738 701 738 704 740 705 740 713 737 716 739 760 738 766 738 771 739 782 739 788 736 790 739 797 739 798 739 800 740 799 738 813 736 824 740 830 739 852 738 858 737 865 739 876 737 888 738 897 740 910 736
 920 740 940 737 946 737 952 738 964 738 974 736 988 739 1005 739 1004 739 1029 739 1050 739 1058 739 1060 740 100 { m20} R 1061 738 1079 740 1098 737 1101 738 1107 740 1115 739 1132 736 1138 738 1140 736 1141 739 1144 739 1154 739 1168 739 1208 739
 1218 737 1230 737 1227 739 1225 739 1230 737 1241 738 1284 737 1306 736 1300 737 1314 740 1320 738 1336 740 1342 738 1387 738 1428 737 1456 739 1478 737 1484 739 1503 737 1513 737 1517 736 1547 736 1594 739 1639 738 1675 737 1726 736 1747 740 547
 743 556 743 559 741 555 741 571 742 581 743 587 744 599 741 607 740 612 743 624 740 635 743 651 742 656 741 667 741 672 744 670 743 689 741 706 743 712 742 718 740 719 741 730 742 729 744 742 741 745 743 746 741 756 743 755 742 755 740 762 741 764
 743 770 740 797 742 817 742 823 741 829 742 836 744 839 741 848 742 858 741 858 743 871 741 880 743 888 740 885 743 887 741 885 744 892 741 894 741 897 742 905 743 915 742 928 743 944 743 952 743 959 742 962 743 970 742 100 { m20} R 974 744 975 742
 982 743 984 742 991 742 1002 740 1004 743 1031 742 1049 744 1047 743 1051 741 1055 742 1057 743 1058 741 1078 743 1088 740 1123 741 1132 741 1140 740 1148 743 1165 742 1173 742 1184 742 1188 744 1195 742 1193 743 1200 742 1199 742 1211 741 1222 742
 1227 741 1226 742 1246 744 1264 741 1272 743 1288 740 1291 741 1298 743 1325 741 1336 741 1333 742 1358 743 1355 741 1358 740 1361 742 1370 743 1372 743 1391 740 1406 743 1434 740 1464 741 1502 743 1547 744 1564 742 1578 742 548 745 567 745 604 746
 614 745 634 747 640 747 644 746 650 744 652 745 666 747 667 746 663 745 676 745 675 746 681 748 683 747 688 748 690 745 701 746 706 747 707 748 755 746 756 748 760 746 783 745 795 748 795 746 794 747 810 745 812 746 824 744 829 746 832 746 857 744
 875 746 884 745 889 746 901 746 903 748 902 747 919 745 921 747 924 746 944 744 963 747 100 { m20} R 961 745 967 748 974 747 984 745 990 747 995 748 995 747 1027 745 1025 747 1040 747 1046 746 1046 747 1064 745 1077 744 1076 747 1085 745 1090 745
 1098 747 1098 747 1106 745 1118 748 1121 746 1149 745 1153 745 1150 747 1162 748 1165 746 1189 746 1191 745 1205 744 1218 745 1222 747 1235 746 1240 747 1254 746 1264 747 1273 747 1279 748 1310 744 1324 747 1336 744 1334 746 1361 746 1363 747 1370
 744 1366 744 1393 748 1398 747 1403 748 1423 747 1426 746 1436 748 1476 745 1484 747 1486 746 1544 747 1573 744 1578 746 562 751 568 748 578 752 584 750 587 750 599 751 599 749 604 750 605 751 604 749 605 750 612 749 619 749 622 752 625 752 634 752
 650 752 671 751 674 750 674 749 682 750 724 752 725 752 733 749 731 749 734 750 746 749 750 752 753 750 760 748 764 750 778 748 777 752 784 751 817 748 821 751 823 749 821 751 831 749 849 749 852 750 860 749 100 { m20} R 861 749 874 751 882 750 881
 752 880 751 888 752 886 752 891 749 898 751 904 750 903 751 912 749 921 749 919 749 927 752 933 752 934 751 943 751 950 752 957 749 970 751 974 749 976 749 1004 749 1007 751 1023 751 1020 751 1028 750 1027 750 1032 749 1049 748 1063 751 1066 749
 1078 752 1074 750 1086 752 1089 750 1085 749 1122 751 1122 752 1137 749 1148 749 1145 751 1152 752 1152 750 1150 752 1156 750 1169 749 1171 749 1180 751 1195 748 1209 748 1239 750 1237 749 1243 752 1247 751 1257 752 1255 748 1259 752 1266 751 1270
 752 1278 749 1284 750 1315 749 1321 750 1332 752 1337 749 1350 750 1355 750 1358 750 1375 749 1384 752 1389 751 1423 750 1427 750 1441 751 1449 752 1474 749 1474 749 1486 750 1488 751 1501 751 1550 750 1561 748 1605 752 1622 750 1666 751 545 752 553
 754 557 754 576 753 590 756 599 756 610 754 611 755 610 756 616 753 621 756 98 { m20} R 622 754 634 754 661 753 669 756 668 754 676 756 684 755 690 755 692 752 690 753 693 756 705 756 712 753 726 756 724 753 745 753 749 755 766 753 777 756 779 753
 784 753 788 754 793 755 800 755 808 753 805 754 809 752 825 753 858 753 857 754 858 756 864 754 865 753 877 755 893 755 905 755 921 753 940 754 943 753 949 752 954 753 973 755 990 755 991 755 990 753 1001 756 998 754 1001 754 1005 755 1005 754 1009
 755 1035 756 1032 753 1037 756 1042 754 1047 753 1063 753 1069 752 1075 755 1082 755 1086 754 1087 753 1101 755 1111 756 1121 752 1121 753 1121 752 1126 753 1127 756 1139 753 1156 754 1155 753 1161 756 1187 753 1205 755 1213 755 1219 756 1214 754
 1223 755 1237 752 1260 754 1259 753 1264 754 1269 756 1270 756 1277 754 1288 754 1289 755 1291 754 1357 756 1397 752 1408 754 1419 755 1431 756 1448 753 1462 755 1468 753 1473 755 1486 755 1487 753 100 { m20} R 1495 753 1507 752 1514 755 1543 752
 1593 755 1642 755 1757 754 565 758 570 759 572 758 588 759 599 757 615 758 624 759 626 757 630 759 644 757 657 757 656 757 671 756 668 758 695 756 703 760 723 759 723 759 728 758 740 760 760 758 774 758 789 759 793 759 804 760 822 760 839 757 851
 758 855 757 866 760 889 757 897 758 898 758 900 759 914 757 917 758 921 757 920 757 926 757 931 758 933 760 963 758 973 757 981 758 979 759 977 757 981 758 990 756 999 757 1024 758 1026 758 1034 759 1035 757 1050 758 1052 759 1064 758 1070 760 1086
 760 1093 759 1095 757 1097 757 1098 757 1115 758 1128 760 1136 757 1133 759 1137 760 1143 758 1155 759 1170 760 1181 758 1187 758 1192 759 1192 760 1193 757 1196 757 1207 760 1232 757 1238 759 1245 757 1279 760 1290 760 1297 757 1301 758 1306 758
 1309 760 1327 759 1332 757 1345 759 1359 758 1357 760 1355 759 1371 758 100 { m20} R 1371 760 1392 758 1394 759 1426 759 1442 757 1494 757 1490 759 1532 758 1540 757 1552 757 1568 760 1575 759 1680 757 1682 759 567 762 573 761 572 764 596 762 599
 761 598 761 620 761 632 761 638 764 641 761 644 763 659 762 659 764 666 761 672 762 674 764 685 763 692 763 709 764 713 764 712 762 722 761 733 761 751 764 755 762 758 762 772 764 771 763 797 763 801 764 804 762 804 761 816 763 838 762 855 763 867
 762 863 761 871 761 868 764 872 764 877 762 883 764 899 762 913 761 918 761 931 761 933 764 938 761 933 763 939 763 945 763 945 762 950 762 954 763 959 764 960 763 964 762 966 762 975 762 976 761 985 762 1000 761 998 763 1001 763 1003 762 1007 763
 1013 764 1028 760 1057 761 1054 762 1073 763 1078 763 1076 762 1081 762 1090 761 1113 763 1119 763 1135 761 1145 761 1150 762 1154 763 1168 763 1165 764 1167 763 1167 763 1189 764 100 { m20} R 1193 764 1193 764 1195 760 1209 761 1221 762 1232 764
 1235 764 1231 761 1236 762 1240 764 1240 762 1236 762 1236 761 1242 760 1247 762 1248 764 1262 762 1266 761 1265 764 1271 762 1270 761 1270 763 1299 762 1325 761 1366 764 1431 762 1440 761 1478 761 1480 762 1484 764 1527 763 1533 762 1627 762 1647
 761 1764 761 550 766 552 767 563 766 570 765 575 765 596 768 600 769 612 766 636 765 638 768 638 766 642 766 646 767 649 765 675 765 681 768 680 767 686 765 690 767 699 767 701 766 703 768 709 767 709 766 719 767 720 766 723 768 727 766 732 767 728
 766 735 767 749 768 758 765 756 767 762 766 775 766 773 768 798 768 806 767 813 766 808 768 814 767 822 766 823 767 829 766 844 766 843 768 852 765 865 766 864 767 866 766 869 768 885 768 893 767 900 766 901 768 914 765 916 767 916 765 921 767 924
 766 930 765 934 767 964 766 961 765 100 { m20} R 986 767 996 767 1002 765 1017 765 1015 768 1030 765 1026 767 1048 767 1053 768 1067 766 1078 766 1083 766 1081 767 1080 768 1099 766 1103 766 1107 768 1111 768 1114 766 1140 768 1142 767 1158 766 1155
 767 1156 767 1195 765 1210 766 1212 765 1213 768 1218 768 1227 767 1240 768 1251 769 1248 767 1247 767 1251 766 1252 766 1258 768 1293 765 1305 768 1306 766 1310 766 1312 768 1321 767 1338 768 1336 764 1346 767 1358 765 1364 767 1362 766 1381 767
 1390 766 1389 765 1387 765 1389 766 1400 769 1423 768 1434 766 1437 767 1451 767 1452 765 1484 768 1510 767 1520 767 1569 768 1578 766 1638 766 1723 767 2038 768 554 770 559 770 556 773 564 771 570 771 569 772 572 770 576 771 578 770 602 771 606 770
 609 771 623 769 632 769 654 770 667 772 663 769 712 771 720 771 733 770 740 769 742 772 758 770 765 772 784 771 784 772 790 770 787 769 790 769 795 772 794 770 802 769 100 { m20} R 806 769 809 773 812 769 809 770 819 773 832 772 833 772 859 770 865
 771 865 770 865 771 870 772 876 769 888 769 885 772 890 771 892 769 902 771 909 769 909 771 912 769 919 771 936 769 937 770 941 769 942 770 949 769 945 769 957 769 955 772 958 772 958 770 970 770 980 770 996 771 998 769 1007 770 1005 772 1018 769
 1029 772 1026 769 1031 772 1045 772 1050 769 1064 770 1076 771 1092 770 1091 771 1109 769 1123 771 1131 771 1131 771 1131 769 1136 772 1146 769 1151 773 1154 771 1163 771 1169 772 1170 772 1174 772 1173 771 1173 772 1174 773 1183 770 1182 772 1210
 770 1217 769 1224 769 1228 770 1232 770 1254 769 1267 770 1273 771 1289 769 1291 770 1298 770 1302 771 1308 769 1312 769 1325 772 1330 771 1333 769 1336 770 1340 771 1339 771 1346 769 1364 770 1372 770 1373 771 1387 769 1390 770 1406 770 1413 770
 1423 769 1430 771 1462 770 1541 771 1547 772 1574 772 100 { m20} R 1609 771 1647 770 1674 770 1687 770 1705 771 1791 772 549 773 555 774 563 773 572 775 578 775 594 773 601 776 619 776 633 775 632 775 638 775 639 775 637 775 648 773 661 776 661 774
 661 773 664 777 673 775 683 774 684 775 700 774 711 777 712 773 730 775 734 773 743 773 744 774 749 776 754 774 749 773 756 774 772 774 786 774 789 776 803 776 803 775 810 776 815 773 820 774 843 773 843 775 845 775 861 776 858 776 862 775 867 773
 867 775 869 776 888 776 886 776 898 775 902 774 909 775 912 774 914 775 935 776 936 773 942 777 943 774 957 774 961 773 965 775 966 777 976 775 978 773 996 774 1005 774 1007 773 1012 775 1011 776 1014 776 1019 777 1023 775 1026 773 1030 776 1028 776
 1027 773 1036 776 1046 773 1048 774 1056 776 1062 774 1070 776 1084 774 1090 775 1100 776 1112 776 1122 774 1129 773 1132 776 1141 773 1142 774 1149 774 100 { m20} R 1157 773 1157 774 1164 775 1176 774 1175 773 1172 774 1180 776 1197 774 1196 774
 1204 773 1208 773 1205 774 1220 773 1235 774 1240 773 1266 775 1271 776 1274 773 1278 774 1290 773 1299 774 1296 776 1317 774 1352 774 1376 776 1373 774 1381 776 1390 775 1400 777 1410 774 1442 775 1454 776 1516 774 1521 776 1535 773 1538 773 1553
 775 1602 774 1630 776 555 779 564 777 576 777 582 780 584 779 585 781 624 778 623 778 634 778 640 778 647 779 659 780 664 781 668 779 672 778 669 780 675 779 689 778 699 779 704 777 707 781 708 779 741 780 764 778 777 779 784 780 782 781 801 778 807
 779 811 778 818 777 824 777 837 778 840 781 854 779 856 780 863 778 872 778 883 777 885 780 886 777 891 779 894 777 899 777 902 778 909 778 916 779 932 779 945 777 948 778 952 779 953 779 964 778 973 777 988 778 995 781 1013 778 1018 777 1024 779
 1027 781 1033 777 100 { m20} R 1039 781 1043 780 1048 778 1049 781 1050 778 1052 779 1056 778 1061 777 1078 778 1080 778 1100 781 1112 780 1133 780 1137 777 1141 780 1139 779 1143 778 1148 778 1145 779 1144 779 1148 777 1151 778 1159 779 1155 779
 1158 781 1161 779 1162 778 1177 777 1179 780 1181 778 1189 778 1189 780 1193 777 1196 779 1193 777 1207 777 1219 780 1223 777 1229 781 1231 779 1236 777 1246 778 1253 779 1272 780 1278 778 1283 780 1280 777 1284 777 1287 778 1290 777 1291 779 1296
 778 1304 780 1314 779 1316 779 1320 780 1329 779 1337 778 1340 778 1348 779 1362 778 1363 777 1368 779 1380 777 1393 778 1398 779 1415 777 1420 781 1430 778 1450 780 1455 779 1472 780 1482 780 1524 780 1535 780 1535 777 1663 778 1838 780 1899 777
 569 782 571 784 580 783 589 783 607 782 612 781 609 785 623 782 646 784 642 784 644 784 650 783 654 783 655 781 658 781 659 782 661 782 675 784 702 782 707 783 716 785 100 { m20} R 712 784 734 781 744 784 752 781 769 783 774 783 771 783 771 782 773
 783 786 783 785 781 795 781 801 782 802 781 802 781 806 783 804 782 809 782 815 785 823 783 827 785 827 783 842 784 845 781 845 784 842 782 845 785 869 783 880 783 898 782 896 784 898 784 905 784 905 783 909 784 913 785 915 782 911 784 933 784 941
 784 950 784 967 782 976 784 984 783 1007 783 1011 784 1032 783 1040 784 1038 781 1044 781 1047 785 1049 784 1056 781 1057 781 1074 781 1075 784 1074 782 1081 782 1081 782 1086 782 1088 781 1101 784 1131 783 1131 783 1136 784 1137 782 1148 781 1156
 783 1166 782 1173 784 1178 782 1181 783 1190 781 1188 783 1195 784 1205 783 1208 784 1213 785 1213 783 1217 784 1217 781 1222 782 1229 781 1235 782 1238 784 1243 784 1247 782 1259 784 1265 782 1295 783 1306 782 1312 784 1318 781 1324 781 1335 781
 1389 782 1394 784 1397 781 1401 782 1404 784 100 { m20} R 1412 783 1425 785 1439 784 1493 782 1518 782 1542 783 1578 784 1586 784 1623 781 546 786 549 785 555 787 565 787 573 787 571 786 585 786 586 788 613 785 608 786 614 789 644 788 644 789 648
 785 648 787 662 786 666 788 670 788 676 788 675 786 681 785 692 786 708 785 716 788 718 787 734 785 740 786 742 788 750 788 757 786 761 789 770 786 769 789 773 789 772 787 772 786 777 788 780 787 786 789 786 786 782 785 789 787 797 789 805 787 811
 788 812 788 815 785 824 788 832 789 836 786 837 786 840 786 838 786 847 786 863 787 878 788 883 788 895 786 911 788 912 789 933 787 942 788 958 787 958 787 955 786 959 787 956 788 955 785 962 786 963 787 960 789 966 788 968 785 978 788 977 786 982
 786 993 787 1007 788 1005 788 1007 785 1004 787 1009 787 1044 787 1048 786 1046 788 1046 789 1059 787 1060 787 1059 788 1063 788 1067 786 100 { m20} R 1076 787 1089 788 1102 788 1113 786 1122 787 1120 788 1126 788 1125 786 1128 785 1142 787 1146 788
 1152 786 1159 786 1161 788 1163 787 1168 788 1166 787 1165 788 1192 787 1193 787 1208 787 1223 787 1233 785 1240 786 1250 788 1259 785 1286 788 1300 789 1314 785 1318 788 1318 785 1345 788 1350 787 1359 786 1364 787 1371 785 1377 786 1386 786 1391
 786 1392 786 1405 787 1412 787 1455 786 1478 785 1481 788 1648 787 1796 787 574 790 590 793 600 792 623 791 620 792 628 791 628 789 625 793 640 792 644 790 649 792 650 790 652 790 652 793 661 793 664 790 669 791 696 793 708 793 711 790 721 789 736
 791 737 792 745 792 743 790 746 792 755 790 763 789 762 793 785 790 796 792 795 792 806 792 819 792 821 792 827 790 846 793 855 789 863 792 867 790 882 791 893 790 901 791 916 792 916 791 911 792 922 793 927 791 936 791 942 793 958 790 958 791 964
 791 100 { m20} R 966 792 967 791 972 792 977 792 979 790 985 792 992 792 993 793 998 792 1018 789 1033 791 1033 790 1038 789 1044 792 1049 790 1052 793 1058 790 1073 792 1068 790 1073 790 1087 791 1092 790 1091 792 1099 791 1110 792 1123 792 1145
 791 1151 790 1163 790 1164 793 1187 793 1196 793 1202 790 1203 790 1204 793 1210 791 1212 792 1231 790 1239 789 1248 791 1247 792 1246 793 1254 793 1259 791 1261 792 1273 791 1270 789 1273 792 1277 792 1279 789 1308 792 1334 792 1373 790 1376 791
 1380 792 1402 791 1422 789 1442 792 1448 791 1453 791 1452 790 1463 792 1470 791 1516 792 1560 793 1562 791 1577 791 1607 791 1750 789 562 796 565 796 574 795 577 796 589 793 622 796 622 794 634 795 636 797 646 796 672 795 672 796 679 794 684 796
 704 796 710 797 717 794 725 797 741 795 745 794 752 796 759 796 759 796 766 796 783 793 787 795 796 794 799 793 800 795 800 795 798 795 100 { m20} R 829 795 830 795 835 795 836 797 836 794 842 796 842 795 846 796 845 796 851 794 856 795 858 796 869
 796 869 795 869 796 876 795 881 795 881 794 881 796 899 796 899 793 898 794 902 797 914 793 914 794 917 797 929 797 945 793 947 795 948 793 945 797 960 796 963 797 964 794 966 796 970 794 975 793 975 795 980 794 988 795 994 796 993 796 998 794 1006
 797 1022 797 1028 797 1034 794 1051 796 1068 793 1077 793 1075 794 1076 796 1078 796 1085 794 1088 797 1098 797 1116 796 1119 794 1127 795 1131 794 1132 794 1137 796 1142 796 1140 795 1139 795 1144 793 1148 793 1151 797 1165 794 1178 797 1191 795
 1195 796 1200 795 1200 794 1217 794 1219 794 1224 797 1221 794 1225 797 1233 794 1243 796 1255 795 1262 795 1268 793 1264 797 1273 797 1274 795 1284 795 1287 794 1285 797 1296 795 1296 795 1309 796 1316 794 1335 796 1341 794 1353 794 1356 795 1394
 796 1409 795 100 { m20} R 1419 796 1429 795 1432 795 1449 796 1480 796 1500 793 1500 794 1526 794 1529 794 1540 796 1564 794 1579 794 1659 796 1817 796 558 797 579 798 586 800 590 798 608 801 624 801 634 801 638 799 640 800 657 798 665 801 674 799
 693 798 691 799 699 799 715 799 727 798 737 801 742 801 747 799 749 801 759 801 773 799 776 800 779 800 786 798 792 798 800 799 808 800 813 799 831 801 834 799 849 800 861 801 868 799 869 801 876 801 878 799 875 801 892 799 898 800 906 798 910 797
 917 800 921 797 925 799 928 798 928 799 939 801 938 799 950 800 953 798 953 799 970 800 969 797 984 801 995 798 994 798 993 800 999 801 1013 801 1010 800 1021 797 1027 801 1029 798 1027 798 1038 797 1040 800 1042 799 1043 800 1055 800 1064 801 1063
 798 1070 800 1077 799 1084 800 1090 797 1097 799 1101 800 1105 799 1106 800 1111 798 1114 797 1116 797 1124 798 1125 798 100 { m20} R 1126 798 1134 800 1136 801 1153 799 1150 800 1149 798 1170 801 1181 800 1192 801 1193 798 1213 798 1224 800 1219
 798 1238 801 1245 798 1253 801 1268 799 1275 798 1292 798 1294 800 1294 801 1307 797 1337 800 1340 801 1354 800 1358 798 1358 798 1369 799 1365 800 1370 799 1376 800 1404 798 1410 798 1414 800 1439 799 1451 798 1472 801 1561 798 1636 799 553 805 552
 802 555 802 558 802 560 803 564 805 579 803 587 804 593 802 596 804 598 805 599 802 607 803 612 805 621 801 621 805 621 802 629 804 627 804 625 805 631 804 636 801 665 802 672 803 669 803 675 803 685 804 690 805 703 801 709 805 719 803 729 803 734
 805 742 802 748 802 746 804 750 803 755 802 779 802 788 804 822 804 823 804 841 805 839 804 838 802 846 804 849 801 856 802 860 803 870 803 875 803 900 805 904 805 905 804 902 803 908 803 908 802 910 805 912 804 940 804 949 801 100 { m20} R 955 802
 977 805 982 803 1004 802 1013 804 1017 803 1020 802 1027 802 1030 805 1049 802 1048 805 1065 805 1064 805 1066 802 1064 803 1072 803 1072 802 1069 804 1083 803 1079 805 1089 804 1110 804 1119 802 1117 803 1125 804 1126 802 1132 802 1132 802 1140 803
 1156 803 1157 803 1161 804 1169 802 1169 804 1167 805 1172 803 1179 801 1184 801 1187 803 1195 805 1196 804 1193 805 1213 804 1217 804 1214 803 1225 803 1241 802 1246 802 1256 803 1263 804 1265 801 1266 802 1272 804 1282 804 1295 802 1306 804 1320
 801 1358 804 1357 805 1356 802 1365 805 1373 804 1371 804 1398 802 1426 805 1425 805 1459 803 1460 804 1473 805 1480 804 1488 805 1500 802 1502 804 1514 802 1540 802 1548 805 1560 803 1563 805 1585 805 1594 803 1659 802 544 807 550 807 577 807 579
 807 592 807 592 807 597 809 604 808 628 806 630 807 629 806 630 807 631 808 656 808 670 806 672 809 672 806 682 806 693 806 100 { m20} R 700 808 698 807 702 806 732 806 732 806 741 809 749 807 753 809 768 808 773 809 786 809 782 809 788 806 788 808
 824 807 829 807 831 809 848 809 852 805 855 808 853 809 863 806 872 807 879 806 890 806 896 805 901 809 920 808 918 807 927 806 946 807 952 808 961 806 962 806 973 809 975 806 977 807 985 807 982 808 983 807 987 808 990 808 993 807 1022 809 1023 807
 1019 807 1037 807 1046 808 1054 809 1054 808 1056 806 1057 806 1057 808 1067 809 1073 809 1078 806 1096 808 1095 807 1096 808 1105 808 1113 809 1121 808 1123 809 1132 808 1131 808 1137 808 1144 808 1151 806 1158 807 1163 808 1168 806 1176 806 1185
 809 1192 809 1192 808 1195 807 1203 809 1206 807 1206 807 1206 807 1207 806 1205 809 1204 807 1209 808 1208 809 1213 808 1222 806 1229 807 1227 806 1239 808 1242 809 1243 806 1245 806 1260 806 1281 809 1292 808 1299 807 1300 807 1307 806 1330 807
 100 { m20} R 1330 807 1334 807 1337 807 1343 808 1346 809 1365 805 1365 807 1380 808 1387 808 1402 808 1417 809 1432 808 1486 808 1493 806 1493 808 1495 808 1510 806 1513 807 1522 807 1582 809 1663 807 573 813 579 813 591 813 600 813 609 813 615 813
 624 809 645 810 643 812 650 813 664 813 678 812 682 813 685 812 687 811 692 813 700 810 704 811 708 811 725 812 756 811 760 813 766 810 768 813 770 813 774 813 777 812 789 811 790 813 812 809 823 812 828 811 846 811 851 813 864 812 884 810 897 813
 899 810 916 811 920 811 918 811 921 811 938 813 941 810 946 810 945 811 978 810 978 813 989 812 998 813 1002 814 1004 812 1006 813 1012 811 1031 810 1036 812 1050 810 1055 812 1057 813 1053 813 1061 811 1059 811 1061 811 1072 812 1077 811 1084 813
 1091 810 1095 812 1094 812 1130 810 1130 811 1138 810 1135 810 1133 810 1146 813 1175 811 1179 812 1184 812 1197 810 100 { m20} R 1200 811 1200 811 1200 812 1212 813 1226 811 1229 812 1239 811 1244 811 1256 812 1259 812 1258 812 1266 813 1271 813
 1269 812 1278 810 1274 812 1284 810 1290 811 1304 811 1307 813 1318 813 1328 811 1342 811 1352 811 1385 812 1387 811 1407 813 1416 811 1435 810 1444 812 1468 813 1548 811 1549 811 1565 813 1576 810 1580 811 1591 813 1868 810 566 814 580 814 593 816
 600 815 608 817 603 815 611 816 618 815 639 814 668 816 693 816 704 815 706 814 716 817 720 816 719 817 726 817 726 816 723 817 728 814 744 816 744 816 769 817 767 818 772 817 781 816 782 816 787 816 788 817 794 814 794 814 811 814 810 816 815 816
 832 817 830 816 839 816 838 814 844 816 848 817 856 817 860 814 873 814 881 817 888 817 884 814 888 814 890 817 898 815 903 814 906 816 918 816 922 816 928 816 954 814 977 815 977 816 982 817 994 817 97 { m20} R 993 815 997 817 998 814 999 816 1001
 815 1008 816 1069 815 1076 817 1079 815 1132 817 1134 817 1137 814 1134 816 1143 814 1149 815 1153 814 1156 815 1189 814 1195 816 1196 817 1203 816 1205 816 1206 817 1212 815 1211 814 1218 814 1221 817 1226 817 1228 815 1230 818 1230 816 1241 817
 1240 817 1243 817 1253 815 1261 815 1258 816 1268 816 1275 814 1274 815 1281 815 1294 816 1294 817 1328 816 1353 817 1373 816 1385 816 1387 814 1392 817 1395 817 1425 816 1433 814 1443 815 1449 816 1489 817 1510 818 1520 818 1532 815 1681 817 557
 821 580 818 579 819 598 819 606 821 650 820 652 818 660 820 663 819 672 821 695 820 704 818 708 818 716 821 721 819 719 819 724 821 743 819 754 819 760 820 764 821 771 821 779 819 800 820 804 818 809 819 818 818 817 822 832 820 831 821 840 822 836
 820 839 818 838 821 850 820 859 820 862 820 858 821 868 818 870 822 876 819 100 { m20} R 883 821 886 821 891 821 904 821 905 821 909 819 907 819 925 819 933 820 933 821 939 820 954 821 951 819 953 820 958 821 962 819 975 818 982 821 984 818 981 818
 996 820 1012 822 1021 821 1030 820 1030 820 1033 818 1045 821 1044 821 1050 820 1051 819 1055 819 1059 819 1072 818 1073 818 1081 821 1085 819 1103 820 1109 819 1110 819 1115 819 1121 821 1118 821 1125 821 1128 818 1132 820 1133 819 1148 820 1148
 822 1148 820 1155 819 1168 819 1174 818 1175 820 1182 819 1198 821 1206 818 1205 822 1213 821 1211 821 1222 820 1231 818 1247 822 1250 821 1254 819 1275 818 1287 822 1293 820 1307 818 1319 819 1327 820 1332 820 1331 818 1339 820 1355 818 1375 819
 1378 818 1377 819 1383 819 1398 821 1404 821 1413 818 1424 820 1433 821 1437 819 1450 819 1454 818 1467 820 1471 821 1484 820 1489 821 1493 818 1502 818 1526 819 1523 819 1528 820 1533 819 1540 819 1541 821 1593 821 1596 818 100 { m20} R 1625 818
 1642 820 558 822 555 824 573 825 584 825 588 825 601 822 619 824 627 822 640 824 642 822 659 823 673 824 676 822 685 823 685 822 690 823 705 824 720 822 722 823 729 825 737 825 749 825 745 824 750 824 765 824 764 825 762 823 765 824 770 822 777 824
 792 823 788 824 805 822 810 823 815 825 816 823 820 826 825 824 833 825 835 823 840 822 836 822 841 825 851 823 849 822 862 825 861 824 862 823 866 824 871 823 886 825 884 822 892 824 892 826 893 823 898 822 896 826 899 823 904 824 902 822 906 825
 942 823 961 824 967 822 977 822 984 825 995 824 998 825 998 825 1004 824 1003 823 1012 824 1017 825 1019 825 1019 822 1020 825 1025 823 1028 823 1036 822 1039 823 1036 823 1042 825 1042 823 1042 822 1061 823 1057 825 1060 825 1083 822 1083 825 1080
 825 1093 822 1096 825 1103 825 1111 822 1119 823 1117 825 1120 824 1123 824 100 { m20} R 1127 823 1167 823 1171 825 1182 824 1184 825 1188 823 1189 822 1189 822 1191 825 1204 822 1205 823 1211 825 1209 825 1215 823 1223 826 1233 823 1234 824 1230
 825 1250 825 1248 822 1256 825 1257 824 1261 824 1266 824 1290 824 1304 825 1316 824 1312 826 1316 824 1322 825 1326 822 1327 822 1327 822 1333 823 1333 825 1342 826 1338 822 1356 823 1361 825 1363 823 1379 824 1413 822 1420 824 1452 823 1458 825
 1471 824 1479 823 1484 823 1492 822 1541 823 1539 823 1619 824 1630 823 1660 824 1886 824 561 828 571 828 579 829 590 828 588 829 589 828 588 826 597 828 602 828 629 826 632 829 652 829 660 827 674 827 688 829 692 826 725 828 722 826 728 828 736 826
 736 826 747 828 757 827 755 827 757 829 758 829 768 829 768 827 770 829 773 829 779 827 778 829 797 827 798 826 805 829 803 827 805 830 814 830 834 827 836 826 837 827 838 830 844 828 844 829 849 829 100 { m20} R 862 826 878 827 875 828 887 829 897
 830 895 830 908 826 912 827 920 827 918 829 932 826 936 829 950 829 950 828 954 830 951 826 965 826 968 829 975 830 978 827 983 827 991 827 1002 828 1007 827 1012 827 1018 828 1023 826 1020 827 1027 829 1034 826 1042 828 1043 828 1050 827 1056 827
 1057 827 1067 826 1070 830 1076 827 1073 827 1079 827 1084 827 1083 829 1085 830 1091 828 1100 828 1105 828 1108 829 1120 829 1119 828 1126 828 1122 829 1124 826 1130 827 1134 828 1136 830 1139 827 1140 827 1152 828 1166 829 1168 829 1171 826 1171
 828 1174 826 1171 828 1178 830 1178 828 1177 830 1182 828 1182 829 1194 828 1193 826 1203 829 1218 828 1231 827 1240 828 1278 827 1282 830 1281 827 1280 827 1282 828 1283 828 1281 827 1294 829 1299 828 1309 828 1351 830 1355 828 1359 827 1361 828
 1377 828 1382 829 1398 829 1404 828 1408 829 1415 826 1415 828 1418 830 1426 829 1432 830 1474 827 100 { m20} R 1482 829 1495 827 1507 826 1531 827 1537 826 1544 826 1576 827 1664 829 1677 827 1693 827 557 833 559 830 572 830 579 831 581 833 585 831
 591 830 595 833 598 831 613 833 619 834 628 834 640 831 639 831 636 831 648 831 655 831 657 834 666 830 683 830 705 831 710 830 706 830 730 830 745 832 749 831 752 832 769 831 770 833 774 830 773 832 798 833 802 833 801 833 804 830 828 832 864 833
 863 833 878 831 874 834 878 831 888 831 886 830 897 831 906 833 907 832 915 831 917 833 917 830 918 832 918 832 917 833 927 830 928 830 927 833 935 833 943 834 951 831 950 832 963 832 977 832 979 834 990 832 992 834 1001 831 1005 830 1004 831 1004
 832 1020 830 1019 830 1027 831 1046 832 1045 832 1048 834 1048 833 1056 830 1058 833 1062 831 1061 830 1064 830 1064 832 1069 832 1073 830 1078 831 1079 833 1090 832 1097 834 1095 830 1095 832 1104 832 100 { m20} R 1102 831 1110 833 1112 832 1115
 832 1122 832 1128 832 1137 833 1141 833 1149 832 1177 833 1179 831 1187 832 1190 834 1200 832 1198 830 1204 832 1216 833 1226 831 1229 834 1235 832 1233 833 1234 833 1233 832 1240 832 1243 833 1242 834 1251 832 1259 831 1266 834 1269 832 1281 833
 1289 831 1300 832 1310 832 1309 830 1312 833 1325 833 1334 832 1335 830 1336 832 1346 834 1359 831 1364 832 1369 831 1371 833 1384 830 1404 834 1434 830 1449 834 1466 833 1472 831 1478 832 1484 830 1523 831 1537 832 1617 831 1666 833 1702 834 551
 837 553 836 551 834 577 838 593 837 611 837 615 837 624 835 637 835 656 835 661 837 668 835 714 837 731 838 737 835 745 834 752 835 754 835 775 838 774 836 816 837 822 834 820 838 836 837 842 838 847 838 849 835 861 837 866 837 876 837 874 834 884
 836 891 837 900 837 903 837 916 835 920 836 917 836 922 838 927 836 926 834 925 837 100 { m20} R 938 837 948 837 955 838 961 836 961 836 981 838 982 836 993 834 995 837 1005 837 1011 834 1016 837 1021 838 1019 838 1024 835 1024 838 1020 838 1026 834
 1042 835 1056 837 1053 838 1062 835 1068 835 1083 837 1085 835 1085 836 1084 835 1100 835 1127 837 1124 836 1129 836 1138 835 1145 836 1175 837 1176 837 1180 834 1189 836 1191 838 1198 837 1207 835 1206 836 1205 837 1213 835 1212 837 1223 836 1235
 837 1243 834 1252 835 1251 835 1254 836 1267 835 1276 838 1280 837 1287 836 1296 834 1305 836 1307 835 1313 836 1313 836 1332 838 1335 834 1352 837 1350 837 1361 838 1365 836 1367 835 1378 836 1381 834 1395 835 1403 836 1415 834 1440 836 1467 835
 1467 838 1467 835 1484 836 1539 837 1541 835 1573 838 1615 836 544 841 557 839 562 840 580 840 578 839 597 839 597 839 593 841 622 841 630 839 651 839 647 842 652 841 658 842 657 840 664 841 667 839 672 839 685 841 693 839 100 { m20} R 693 840 698
 838 702 842 709 841 729 839 733 842 742 839 744 841 759 842 763 841 772 842 786 838 790 838 790 840 796 841 803 841 801 841 802 841 807 838 806 842 823 839 830 840 835 838 864 842 864 842 866 842 870 839 870 841 876 840 874 841 891 838 898 839 895
 839 906 842 916 840 919 841 917 839 926 840 935 840 949 841 952 839 957 840 965 841 977 841 982 842 983 839 990 841 996 842 1012 839 1019 840 1014 842 1018 839 1023 840 1020 841 1028 840 1025 841 1039 841 1037 841 1042 842 1043 841 1042 841 1044 842
 1049 840 1056 839 1063 838 1072 841 1072 841 1082 841 1080 841 1093 839 1102 842 1101 842 1109 842 1110 840 1107 841 1114 839 1117 842 1127 841 1138 840 1145 842 1150 842 1152 838 1175 841 1175 842 1178 839 1178 839 1184 839 1192 839 1191 840 1219
 840 1220 840 1234 840 1275 840 1285 839 1286 839 1298 839 1297 838 1296 841 1299 841 1306 841 100 { m20} R 1314 840 1358 839 1363 841 1360 839 1371 839 1377 842 1386 839 1401 840 1408 840 1430 841 1449 839 1478 840 1736 838 566 844 587 843 597 842
 599 845 612 844 612 843 633 843 642 843 656 843 659 845 668 843 687 845 695 845 701 843 705 846 716 843 721 844 719 845 719 844 724 846 737 842 748 843 745 845 749 845 759 845 767 845 769 845 775 845 776 846 780 844 783 843 786 843 797 843 805 845
 804 845 819 842 816 843 818 844 818 846 826 845 830 843 834 844 838 845 840 846 851 844 849 845 852 843 863 846 864 844 873 846 877 844 879 844 893 845 902 842 914 845 919 843 930 845 927 845 945 843 950 846 963 844 963 843 967 844 966 842 975 844
 972 843 990 843 995 845 1002 844 1013 845 1010 843 1014 844 1018 844 1024 844 1027 843 1038 845 1045 844 1051 846 1047 844 1061 843 1067 843 1068 844 1077 845 1083 846 1081 845 1088 843 1106 843 100 { m20} R 1125 845 1125 842 1149 846 1156 843 1156
 845 1174 843 1174 843 1191 846 1201 844 1203 845 1218 843 1220 844 1219 843 1235 843 1233 845 1232 845 1238 846 1238 846 1244 845 1257 845 1258 844 1257 844 1266 845 1278 842 1280 843 1293 844 1301 844 1312 845 1335 842 1345 843 1356 845 1364 843
 1372 845 1377 843 1389 845 1408 846 1411 843 1500 844 1511 846 1523 845 1535 846 1569 845 1578 845 1582 842 1594 843 1617 843 1616 845 1651 845 592 848 596 847 600 850 612 849 618 849 633 850 637 849 635 848 648 847 648 850 660 849 684 849 691 849
 698 847 705 849 709 848 721 848 725 849 731 849 733 848 753 850 755 848 762 848 773 847 779 848 782 847 790 850 789 847 806 848 847 850 849 847 857 848 877 846 878 847 884 847 881 850 893 848 897 847 925 850 930 849 942 849 945 846 951 850 949 848
 963 847 972 849 984 849 991 848 991 847 992 847 990 848 999 849 100 { m20} R 1008 848 1006 849 1012 847 1013 849 1013 849 1021 850 1034 850 1036 847 1038 850 1055 848 1064 850 1071 847 1081 847 1085 850 1087 850 1099 849 1097 847 1108 849 1116 848
 1129 847 1146 846 1147 848 1154 848 1150 848 1159 846 1167 846 1175 849 1176 849 1197 850 1204 847 1204 849 1207 848 1206 850 1224 846 1222 850 1226 848 1234 849 1231 847 1234 848 1243 849 1241 850 1242 849 1253 850 1255 849 1262 850 1266 847 1270
 847 1275 850 1283 848 1280 849 1301 847 1313 849 1316 850 1314 850 1323 847 1329 847 1343 846 1346 848 1347 850 1387 850 1396 847 1459 848 1466 846 1492 847 1490 850 1503 849 1515 849 1513 848 1551 847 571 854 582 852 589 851 592 851 601 854 601 851
 608 853 614 852 633 851 642 851 678 851 693 852 695 852 703 852 701 851 729 851 735 854 745 854 745 851 750 854 749 852 763 852 764 854 763 854 760 853 768 852 777 854 787 854 786 853 795 854 793 854 100 { m20} R 807 854 803 854 810 853 812 854 809
 853 817 852 823 852 823 851 827 853 832 853 838 854 840 854 845 854 845 853 851 851 856 854 873 853 875 853 886 853 892 851 903 854 915 851 912 854 917 853 931 851 930 854 939 853 949 851 949 851 954 854 975 854 975 852 980 852 983 853 986 854 996
 853 992 853 992 852 1014 854 1012 853 1009 853 1010 854 1017 850 1027 854 1036 854 1048 852 1056 854 1072 852 1076 851 1080 851 1093 853 1101 852 1105 852 1102 853 1116 851 1115 854 1117 850 1132 853 1137 852 1134 850 1151 852 1153 852 1153 853 1159
 854 1166 853 1170 853 1172 853 1175 852 1172 853 1182 854 1194 854 1196 853 1192 851 1204 852 1213 854 1221 854 1220 850 1220 851 1230 854 1229 854 1249 853 1248 853 1262 852 1267 852 1268 854 1285 851 1292 854 1299 852 1301 851 1305 851 1309 853
 1319 854 1323 852 1324 852 1323 852 1333 851 1351 854 1352 854 1364 851 1376 853 100 { m20} R 1387 851 1412 854 1409 851 1413 851 1413 851 1413 854 1414 854 1439 852 1441 853 1445 853 1475 854 1477 852 1488 853 1510 851 1509 854 1582 854 1585 853
 1585 854 1591 854 1596 854 547 856 546 856 551 858 551 858 554 855 560 856 571 855 573 857 578 857 581 856 585 855 585 855 617 858 620 855 632 857 633 857 636 856 650 855 659 856 665 856 669 855 674 855 683 856 695 856 695 858 700 858 712 856 714
 858 720 857 733 855 742 856 745 857 749 858 751 858 752 855 768 856 778 857 778 857 784 857 789 856 802 857 802 856 816 855 815 857 821 858 821 855 821 858 825 856 833 858 831 857 830 856 835 856 837 856 850 858 852 858 862 857 878 856 885 856 891
 858 899 855 911 855 916 856 922 858 932 858 956 855 965 857 973 857 986 855 987 856 988 855 1003 856 1006 858 1018 856 1023 857 1023 855 1019 856 1040 858 1055 857 1060 858 1060 857 100 { m20} R 1060 856 1066 856 1075 857 1075 857 1078 855 1078 858
 1074 858 1081 855 1083 858 1084 857 1091 858 1103 856 1108 856 1108 857 1120 857 1120 855 1122 858 1137 855 1137 858 1134 857 1142 855 1148 857 1151 856 1153 858 1159 855 1179 855 1178 858 1192 855 1204 858 1212 858 1215 856 1222 857 1225 856 1230
 855 1239 857 1242 857 1241 855 1252 857 1249 857 1253 856 1257 855 1282 856 1304 857 1303 855 1300 855 1306 858 1310 857 1313 854 1322 857 1321 856 1318 858 1318 856 1345 855 1352 855 1350 855 1359 857 1368 857 1379 856 1395 857 1395 857 1424 855
 1490 857 1503 856 1530 858 1545 855 1544 857 1686 855 2041 855 552 862 564 860 569 860 581 862 580 862 592 861 597 860 601 862 604 859 612 859 624 860 624 859 627 862 630 859 656 860 655 861 677 859 687 862 700 860 724 860 728 860 745 861 758 860
 759 860 761 859 772 861 773 859 790 860 787 859 797 860 806 859 813 862 100 { m20} R 832 860 857 861 858 862 867 859 864 859 870 861 889 862 889 859 902 862 906 862 903 861 906 861 915 860 916 859 916 860 913 861 918 859 927 859 925 860 940 859 959
 860 956 860 954 859 969 860 973 860 983 859 982 860 988 861 987 862 995 862 997 860 1003 861 1004 863 1007 862 1008 861 1011 862 1024 861 1024 860 1039 859 1036 859 1037 862 1043 861 1059 860 1064 860 1078 861 1080 861 1082 859 1092 862 1093 861
 1098 861 1099 862 1096 861 1098 860 1106 860 1106 860 1115 859 1118 861 1125 862 1123 859 1123 861 1125 861 1127 859 1151 860 1164 860 1167 861 1166 861 1165 861 1182 862 1192 860 1196 859 1207 862 1211 859 1216 860 1230 859 1254 862 1254 859 1252
 860 1282 860 1280 859 1282 859 1279 861 1285 862 1300 859 1312 860 1317 860 1334 859 1340 860 1343 859 1362 862 1360 861 1366 862 1369 860 1379 859 1397 862 1396 859 1408 859 1433 860 1453 861 1461 862 1507 862 100 { m20} R 1568 859 554 866 565 863
 585 867 594 864 595 864 601 863 613 866 623 864 634 863 651 865 666 865 669 866 678 866 699 863 702 867 715 866 721 866 724 865 725 866 733 863 740 867 741 866 747 867 753 866 751 864 763 863 765 867 768 864 765 864 771 866 779 863 779 863 780 865
 781 866 785 865 787 866 798 866 805 864 805 866 815 865 816 864 820 865 820 866 824 865 833 866 845 864 846 864 848 866 857 864 853 866 859 864 867 866 869 864 868 863 877 867 884 866 893 863 893 864 910 865 908 863 911 865 918 865 925 866 947 866
 948 866 959 865 956 866 962 863 969 865 975 865 979 865 983 866 984 866 983 864 985 866 982 866 990 864 998 864 1003 864 1005 863 1009 864 1022 864 1029 866 1027 865 1040 863 1048 863 1052 866 1055 865 1061 866 1062 863 1073 863 1077 864 1084 866
 1080 866 1089 866 1087 867 1089 865 1084 867 1091 863 100 { m20} R 1099 866 1110 866 1116 866 1118 864 1117 865 1117 863 1125 866 1126 863 1127 864 1134 864 1135 863 1139 866 1149 864 1155 864 1159 863 1159 864 1163 866 1173 866 1175 864 1185 865
 1195 863 1198 866 1202 863 1234 863 1238 864 1244 864 1249 864 1266 863 1267 865 1270 865 1272 864 1276 865 1294 866 1304 863 1304 863 1316 865 1318 865 1327 866 1326 866 1335 866 1339 863 1358 865 1360 864 1360 866 1370 864 1385 863 1383 866 1394
 863 1446 863 1453 864 1469 866 1475 863 1493 866 1497 863 1557 867 1612 863 558 869 561 870 572 868 594 869 606 867 611 867 613 869 624 871 621 870 629 867 638 870 635 868 647 870 656 870 652 867 672 868 693 868 694 869 696 867 725 868 733 871 754
 868 756 869 762 868 765 871 772 871 789 869 789 867 791 870 805 869 812 870 811 867 835 869 830 868 837 867 840 870 855 869 854 868 877 870 876 868 876 869 918 868 932 869 933 871 100 { m20} R 937 870 950 869 952 870 951 869 956 867 965 867 970 868
 981 869 978 867 983 868 987 869 992 870 991 867 995 868 999 868 1004 867 1013 871 1019 870 1020 869 1033 870 1049 870 1060 868 1062 869 1060 871 1058 870 1073 870 1078 870 1080 871 1085 870 1096 870 1101 869 1110 870 1108 867 1126 870 1132 869 1138
 867 1137 870 1148 870 1147 868 1153 867 1153 868 1150 869 1155 868 1165 869 1170 870 1171 868 1176 870 1197 870 1197 867 1193 869 1210 869 1214 870 1220 871 1220 868 1235 869 1239 870 1236 868 1244 869 1254 868 1262 868 1262 869 1281 867 1282 869
 1290 867 1306 868 1322 869 1354 871 1370 868 1373 871 1380 868 1382 867 1396 870 1428 869 1438 870 1445 869 1464 870 1567 870 1724 867 554 871 562 874 571 872 627 871 634 872 641 872 656 875 654 875 672 872 671 873 681 872 709 872 712 872 740 872
 757 872 770 872 770 873 765 871 772 872 777 872 782 874 785 874 100 { m20} R 812 872 812 873 812 873 812 874 809 873 825 873 825 873 830 874 835 871 837 875 850 872 865 872 865 872 871 873 870 873 876 873 886 873 899 875 913 875 922 874 928 875 930
 872 933 873 939 874 940 872 941 872 952 873 957 873 956 872 954 872 962 872 969 873 967 872 977 874 981 871 989 875 1006 871 1017 875 1018 872 1029 874 1029 874 1038 872 1039 874 1039 874 1040 874 1038 873 1040 871 1049 871 1048 875 1051 875 1048
 871 1049 874 1072 873 1073 875 1084 872 1089 872 1091 873 1096 873 1119 874 1125 871 1137 873 1135 872 1137 875 1142 871 1148 871 1151 874 1151 874 1154 875 1159 874 1155 871 1165 873 1169 874 1175 872 1185 872 1191 873 1189 874 1198 871 1206 872
 1213 873 1214 873 1212 875 1237 872 1242 875 1260 873 1262 874 1263 874 1264 875 1264 873 1274 871 1285 873 1288 874 1294 872 1304 873 1340 874 1345 871 1346 874 1369 873 1371 873 1385 874 99 { m20} R 1392 874 1387 873 1437 874 1476 873 1498 871
 1569 872 1722 873 563 876 573 875 586 876 610 879 613 878 642 876 657 878 652 877 659 875 678 876 692 876 691 878 695 878 725 878 740 879 760 878 767 875 766 875 773 877 779 876 783 878 804 877 815 876 820 876 821 875 821 878 832 877 836 878 852 875
 855 877 856 878 861 877 865 878 863 876 870 876 874 879 900 875 902 876 906 879 911 875 915 878 923 879 931 875 927 876 936 878 945 878 959 876 960 876 960 876 972 876 981 879 976 878 989 876 1000 878 1003 877 998 876 1002 878 1014 877 1018 875 1023
 875 1026 877 1030 876 1033 876 1036 878 1044 877 1043 877 1050 876 1052 878 1052 877 1064 877 1065 878 1065 878 1078 876 1073 878 1083 877 1084 878 1092 879 1099 877 1115 875 1117 877 1117 876 1117 876 1126 876 1128 876 1128 877 1140 875 1142 876
 1156 876 1157 877 1160 877 1161 877 1165 876 1168 877 100 { m20} R 1167 875 1174 878 1179 875 1179 878 1182 878 1189 879 1193 876 1195 876 1196 878 1193 879 1198 877 1203 877 1208 878 1215 876 1223 876 1224 877 1232 877 1233 876 1237 878 1242 879
 1256 878 1254 876 1252 879 1261 878 1263 875 1278 878 1297 877 1304 879 1306 876 1319 878 1328 877 1366 877 1369 877 1366 875 1379 876 1383 875 1403 875 1415 877 1457 875 1491 877 1500 879 1497 878 1498 875 1514 877 1578 878 1672 877 553 883 575 880
 583 881 582 882 598 879 651 882 662 880 680 881 705 883 709 881 716 879 715 879 713 880 719 881 726 880 740 883 739 881 747 882 762 879 765 879 778 882 776 882 788 880 796 881 798 881 819 882 823 880 820 881 829 881 835 882 834 879 836 880 841 879
 856 880 862 881 859 881 867 882 867 882 869 880 874 882 891 882 892 880 901 881 908 882 915 881 918 881 918 880 918 880 946 882 945 882 952 881 949 882 970 882 983 880 100 { m20} R 989 881 998 882 1001 879 1000 882 1007 882 1018 879 1024 883 1026
 883 1029 881 1036 880 1046 881 1045 883 1047 880 1050 883 1059 881 1062 879 1066 880 1073 880 1069 880 1075 881 1082 881 1084 883 1089 880 1100 883 1095 880 1098 880 1096 880 1102 882 1120 880 1118 882 1128 883 1148 882 1153 881 1167 882 1172 881
 1171 882 1173 881 1177 882 1191 880 1194 880 1213 879 1210 879 1214 880 1223 881 1225 882 1225 879 1235 882 1234 881 1236 882 1250 879 1259 879 1270 880 1271 880 1270 880 1276 883 1276 881 1278 883 1280 880 1283 880 1285 883 1296 881 1295 880 1316
 879 1322 882 1334 882 1353 883 1349 880 1372 881 1380 880 1406 881 1407 880 1403 882 1413 879 1445 879 1454 880 1486 882 1485 879 1522 880 1552 883 545 886 565 883 572 884 573 884 584 887 603 885 599 883 617 884 633 885 640 884 644 885 660 884 659
 884 664 883 666 884 680 886 687 884 708 887 738 884 734 884 744 885 100 { m20} R 759 884 777 887 793 885 796 885 802 887 827 886 835 886 846 886 844 887 849 886 848 884 855 883 857 886 867 883 870 884 876 887 883 885 879 884 879 884 891 883 890 885
 898 883 897 885 903 886 921 884 917 884 924 886 932 884 943 885 939 884 948 883 954 887 961 885 970 885 977 884 983 887 991 886 988 885 1003 883 999 887 1004 885 1007 886 1013 886 1009 886 1017 885 1016 883 1014 884 1018 885 1021 887 1024 884 1032
 884 1044 886 1049 886 1053 885 1055 887 1066 886 1073 886 1085 885 1098 887 1095 886 1110 885 1111 885 1113 884 1120 887 1126 883 1139 885 1138 885 1165 885 1168 887 1180 884 1179 885 1197 885 1209 884 1233 885 1249 884 1268 885 1269 887 1277 887
 1284 887 1292 883 1293 886 1295 884 1295 884 1307 883 1322 886 1334 886 1346 886 1364 885 1378 886 1388 887 1394 887 1401 884 1406 884 1409 884 1432 884 1434 886 1439 885 1494 884 1644 886 545 889 100 { m20} R 558 889 563 891 570 889 572 889 577 888
 586 890 591 890 611 890 622 889 625 888 657 888 654 888 696 890 703 891 705 890 706 890 708 889 719 888 726 888 730 889 735 890 750 889 755 887 764 889 765 888 769 890 771 887 777 890 788 891 802 891 804 891 806 889 810 889 833 891 837 890 840 889
 856 890 858 888 862 890 869 889 874 890 876 888 891 888 900 890 905 888 909 889 906 888 910 890 923 890 935 888 948 891 970 888 985 889 991 887 998 890 1004 887 1013 890 1028 890 1028 889 1041 891 1045 889 1051 890 1059 890 1062 888 1066 891 1063
 890 1065 889 1073 889 1073 889 1075 890 1077 890 1088 891 1086 890 1092 889 1092 889 1098 888 1098 887 1104 891 1106 888 1106 890 1119 888 1123 887 1131 890 1136 889 1135 890 1137 888 1138 889 1150 888 1154 889 1157 891 1177 888 1178 890 1182 889
 1212 889 1241 890 1258 889 1265 890 1269 889 1281 891 1285 888 100 { m20} R 1296 890 1301 888 1308 889 1324 889 1347 889 1364 889 1371 890 1377 890 1379 889 1395 888 1429 889 1586 888 1731 889 563 891 575 893 607 893 619 894 624 894 640 892 637 893
 656 892 663 893 671 892 675 893 681 895 690 895 698 894 697 895 705 893 709 895 720 893 729 895 733 893 733 893 761 894 770 893 771 895 772 895 778 894 787 893 791 895 790 893 793 894 798 893 798 893 804 892 815 895 818 892 819 893 832 895 835 893
 842 895 845 893 844 893 867 892 872 892 876 891 882 892 881 893 884 895 887 892 896 895 897 892 897 895 899 892 903 893 903 895 906 892 915 895 927 893 954 894 951 891 956 893 959 894 957 895 956 895 962 895 968 895 970 893 974 894 977 892 987 894
 993 894 994 892 1006 892 1008 893 1013 894 1019 893 1024 895 1030 894 1043 893 1041 892 1043 894 1051 895 1053 893 1053 895 1057 892 1061 894 1063 893 1077 894 100 { m20} R 1084 892 1086 893 1089 894 1094 894 1090 892 1099 894 1110 895 1108 891 1119
 892 1118 892 1128 892 1134 892 1149 895 1159 893 1170 894 1177 895 1181 892 1178 893 1199 893 1199 894 1203 893 1208 893 1210 894 1210 894 1216 893 1225 894 1231 895 1249 893 1247 891 1258 894 1259 894 1265 895 1284 892 1288 892 1293 892 1301 895
 1309 892 1313 895 1332 894 1342 893 1346 894 1355 893 1368 893 1392 894 1394 891 1403 892 1408 893 1450 895 1485 895 1487 895 1501 895 1591 892 1946 895 551 898 578 895 589 898 595 898 609 899 627 898 625 899 631 896 641 899 655 899 667 896 663 899
 679 896 710 898 715 895 717 896 725 898 731 896 742 896 744 896 751 899 760 898 765 895 768 898 776 897 784 897 791 897 799 896 808 897 813 896 811 897 843 898 844 896 848 896 847 896 858 898 863 897 887 896 894 899 895 897 901 896 911 899 925 896
 924 898 926 896 930 898 940 898 100 { m20} R 940 897 945 895 951 898 953 898 958 899 954 896 961 898 963 896 980 898 979 897 977 898 982 899 981 897 990 898 993 896 994 899 1013 895 1013 898 1013 896 1014 896 1024 899 1021 897 1026 896 1026 899 1039
 897 1041 899 1049 895 1055 897 1052 898 1057 897 1072 898 1071 899 1075 899 1075 898 1079 895 1083 897 1093 899 1098 899 1120 898 1122 899 1118 898 1117 895 1124 896 1124 898 1132 896 1135 897 1141 896 1152 897 1149 897 1157 896 1160 896 1160 899
 1169 897 1174 896 1173 897 1186 895 1187 899 1196 899 1246 898 1250 898 1256 897 1257 897 1261 898 1260 898 1267 896 1273 898 1277 896 1277 895 1336 896 1348 896 1346 897 1354 895 1355 899 1355 896 1371 898 1396 898 1427 897 1435 896 1446 898 1457
 896 1487 897 1501 898 1527 897 1632 896 565 900 568 901 568 901 572 901 571 902 586 902 608 902 616 902 635 900 648 903 682 903 693 902 693 900 738 902 746 902 745 900 100 { m20} R 749 901 768 903 772 900 785 900 786 902 788 900 796 903 801 902 816
 903 824 900 829 901 827 903 828 902 832 902 845 902 847 901 856 901 855 901 861 900 867 903 873 900 877 903 879 903 880 901 888 903 898 902 898 903 898 903 908 900 908 902 916 903 915 901 940 901 940 902 944 903 947 901 944 899 956 903 958 901 962
 902 966 902 973 902 971 901 973 900 992 900 1000 903 1003 902 1004 901 1007 900 1017 902 1025 902 1030 901 1053 900 1060 902 1063 902 1074 900 1080 900 1084 901 1100 903 1099 900 1107 902 1115 902 1119 901 1126 901 1123 900 1130 902 1140 902 1153
 900 1163 903 1166 900 1171 901 1196 900 1195 901 1199 901 1198 903 1210 903 1212 901 1211 900 1209 903 1210 900 1218 902 1228 903 1228 903 1236 903 1240 900 1240 901 1255 902 1256 902 1259 903 1262 902 1276 903 1279 901 1287 903 1288 902 1296 900
 1316 902 1319 901 1323 900 1325 902 1367 903 100 { m20} R 1375 901 1381 902 1391 901 1397 901 1411 900 1412 902 1415 900 1460 901 1512 901 1554 901 558 906 555 907 559 905 583 905 613 906 613 906 640 906 644 907 643 907 646 904 647 905 665 905 682
 906 689 904 702 907 708 904 708 904 731 906 736 905 743 904 738 904 742 905 749 904 752 907 750 907 752 906 758 904 780 906 779 907 784 905 788 904 791 905 807 905 816 905 833 904 840 907 850 905 848 907 848 905 853 906 855 906 872 904 871 906 874
 905 883 908 891 904 895 904 905 904 901 904 906 905 925 906 927 907 938 906 943 907 954 906 956 904 962 905 969 904 966 907 966 905 977 904 985 905 992 904 989 904 988 904 997 905 995 907 994 905 1001 904 999 905 1008 907 1024 907 1021 906 1046 905
 1046 906 1047 906 1050 907 1096 907 1104 905 1102 907 1106 905 1106 907 1118 906 1127 905 1125 905 1124 905 1135 904 1134 907 1139 907 1154 907 100 { m20} R 1166 905 1175 906 1179 906 1186 907 1188 907 1203 905 1212 904 1211 906 1210 904 1217 906
 1215 906 1229 908 1237 906 1245 905 1243 907 1248 904 1252 907 1279 904 1289 907 1284 906 1289 905 1291 907 1296 907 1309 904 1310 907 1307 905 1321 904 1331 905 1337 906 1348 904 1387 906 1410 904 1417 904 1416 906 1414 907 1419 905 1561 904 553
 909 575 911 577 910 649 911 672 908 668 910 675 909 715 908 725 909 734 910 743 909 739 909 744 909 752 910 756 908 758 911 760 911 775 911 776 910 787 909 792 911 787 909 793 911 795 910 804 909 809 908 812 908 814 911 824 912 822 908 823 911 823
 908 835 908 837 910 843 912 849 908 861 912 877 909 903 911 903 911 910 911 916 909 911 909 921 911 924 910 929 911 936 908 943 908 952 910 955 908 957 908 956 909 963 910 971 909 988 910 996 912 993 911 999 908 1003 910 1020 910 1028 911 1031 911
 1034 911 100 { m20} R 1044 908 1043 910 1042 909 1050 909 1061 910 1059 908 1061 911 1065 910 1062 911 1079 909 1074 911 1081 911 1081 910 1083 909 1079 908 1087 910 1090 912 1091 909 1095 911 1102 911 1101 911 1110 908 1116 910 1139 909 1153 909
 1150 911 1152 911 1149 910 1161 909 1166 909 1175 908 1178 910 1185 910 1186 911 1185 909 1192 908 1194 910 1194 909 1192 910 1207 910 1213 909 1220 911 1229 910 1233 910 1232 910 1244 910 1246 910 1255 908 1264 909 1263 910 1289 909 1291 911 1299
 910 1296 911 1305 909 1310 910 1334 911 1341 908 1344 908 1358 908 1380 912 1408 910 1437 908 1524 908 562 915 577 912 581 914 605 912 604 915 615 915 618 914 625 912 643 915 660 913 671 915 678 916 703 914 710 915 712 914 712 915 716 915 716 914
 721 915 729 913 736 913 759 914 761 914 777 915 778 912 808 915 806 914 810 915 821 912 821 912 830 912 861 913 860 913 861 914 863 915 863 913 100 { m20} R 867 915 863 912 878 913 878 913 883 915 880 914 890 915 906 912 907 912 912 916 920 912 927
 915 932 913 932 914 936 915 943 915 947 913 944 915 949 913 958 912 958 915 978 912 995 915 1006 915 1013 912 1012 916 1017 914 1019 913 1024 913 1021 912 1020 913 1026 913 1040 916 1042 915 1041 913 1050 915 1051 914 1053 914 1061 915 1065 915 1065
 913 1071 912 1079 912 1078 912 1074 914 1083 914 1083 913 1081 914 1088 915 1092 914 1089 914 1118 912 1121 912 1132 913 1131 914 1134 912 1135 914 1141 915 1156 914 1157 915 1156 912 1171 914 1181 914 1184 915 1182 914 1205 914 1203 912 1218 912
 1224 916 1220 913 1232 914 1240 914 1249 912 1256 913 1256 914 1265 912 1271 915 1271 915 1277 912 1279 914 1282 912 1288 914 1288 913 1297 915 1305 913 1308 913 1315 914 1325 912 1325 912 1325 913 1327 913 1346 914 1386 914 1401 913 1413 912 1445
 914 1448 915 1509 916 1519 912 1692 914 100 { m20} R 1890 915 553 917 564 919 562 916 568 918 582 917 614 919 635 917 645 918 643 918 656 916 655 916 676 918 679 919 679 917 686 919 716 919 727 919 737 920 742 918 744 919 774 918 776 919 780 918 779
 920 785 916 790 916 797 920 794 919 822 916 819 920 826 916 824 917 831 917 839 920 853 919 863 919 865 920 872 917 870 916 875 917 878 917 893 916 896 918 898 918 898 917 902 919 911 916 914 917 930 918 934 918 935 917 937 918 944 919 958 917 955
 920 958 917 969 918 969 917 976 917 973 917 976 920 981 920 978 919 978 919 985 916 998 918 1008 918 1012 919 1019 919 1019 919 1025 917 1033 917 1038 917 1037 917 1059 919 1065 916 1065 918 1063 917 1074 918 1081 917 1081 920 1079 920 1109 920 1107
 917 1126 917 1123 918 1123 919 1142 920 1159 918 1160 918 1162 919 1169 917 1195 918 1198 917 1202 918 1200 916 1204 917 1209 919 1223 917 100 { m20} R 1229 917 1233 918 1240 919 1237 919 1241 918 1251 916 1263 917 1281 919 1293 919 1291 919 1305
 916 1316 918 1317 920 1332 917 1329 917 1334 918 1340 919 1347 920 1351 918 1362 917 1363 920 1372 918 1381 919 1489 918 554 922 574 922 619 924 622 922 638 921 651 921 655 923 659 920 678 923 684 922 689 921 708 922 713 923 725 922 732 923 731 920
 729 922 735 921 738 921 757 922 768 920 767 922 783 921 788 923 794 920 808 922 814 924 822 922 834 922 849 923 847 924 846 923 852 922 856 922 861 920 861 921 861 921 860 922 868 920 868 922 869 921 894 922 902 922 906 921 907 921 909 920 934 923
 936 922 938 923 943 923 943 924 943 921 939 923 944 920 949 924 957 923 973 923 977 920 983 923 984 921 990 920 999 921 1002 921 1005 922 1010 921 1018 920 1019 922 1019 922 1021 922 1030 922 1027 922 1045 921 1046 923 1050 920 1061 920 1066 923 100
 { m20} R 1068 923 1072 924 1075 922 1082 923 1086 921 1105 922 1103 920 1106 922 1107 920 1115 921 1132 924 1141 922 1149 922 1149 924 1150 923 1156 923 1156 924 1161 921 1166 924 1167 924 1180 922 1180 922 1183 922 1185 921 1190 922 1188 922 1196
 920 1202 923 1208 923 1220 921 1228 920 1234 923 1247 923 1262 923 1259 924 1267 922 1272 920 1269 921 1271 920 1283 920 1299 921 1310 920 1325 921 1339 923 1340 921 1339 923 1349 923 1358 923 1374 920 1379 921 1389 920 1395 922 1494 923 1513 924
 552 925 554 927 554 925 549 927 567 927 605 925 611 925 614 928 622 925 635 926 646 927 681 927 684 927 699 925 699 926 700 926 706 924 743 927 754 927 756 925 763 925 765 927 796 927 800 927 840 924 844 927 859 924 874 926 873 925 889 926 901 927
 906 927 907 924 917 925 921 925 927 924 923 928 932 925 932 927 932 927 929 928 937 926 938 924 933 927 934 926 940 928 100 { m20} R 943 925 948 927 947 924 943 925 970 926 977 927 980 924 991 927 991 925 989 924 989 926 997 925 998 926 998 926 998
 927 1002 926 1020 927 1028 925 1032 927 1035 927 1034 925 1036 925 1045 924 1052 928 1066 924 1074 926 1080 927 1086 925 1086 925 1092 924 1096 927 1097 927 1103 926 1107 927 1112 927 1123 926 1137 927 1133 926 1141 925 1138 926 1142 926 1145 927
 1145 925 1153 925 1152 928 1166 926 1169 926 1168 925 1173 927 1177 926 1182 926 1183 926 1184 925 1194 925 1209 927 1209 924 1216 924 1218 927 1216 925 1235 927 1236 926 1236 926 1249 925 1259 928 1277 924 1279 926 1284 927 1293 928 1294 924 1327
 925 1328 927 1342 924 1353 925 1401 925 1405 925 1412 926 1419 927 1450 926 1468 926 1485 928 553 931 557 931 579 930 597 929 599 931 601 932 610 932 618 928 632 928 631 929 636 932 670 929 675 931 678 931 680 930 710 929 733 931 741 928 740 931 738
 931 100 { m20} R 744 929 745 932 764 931 765 931 769 930 773 930 785 929 791 928 798 932 808 929 813 932 814 929 813 930 816 932 823 932 825 928 850 930 855 928 859 928 860 928 867 929 865 929 868 928 878 932 876 930 895 928 898 929 896 930 909 931
 930 929 934 930 938 929 951 930 956 930 955 930 974 931 972 928 977 928 999 931 1005 930 1007 930 1010 931 1009 928 1011 929 1016 932 1021 929 1022 929 1028 928 1038 929 1039 930 1037 929 1050 929 1046 929 1050 928 1058 931 1084 929 1100 932 1106
 932 1121 929 1120 929 1126 932 1123 929 1141 928 1150 928 1166 931 1181 929 1229 930 1239 928 1245 928 1256 931 1268 929 1266 928 1306 929 1329 928 1333 929 1335 930 1339 930 1340 929 1352 930 1355 930 1370 928 1366 929 1390 931 1397 928 1441 931
 1510 929 549 935 554 934 567 933 580 933 586 935 582 936 605 933 624 935 626 935 639 935 641 934 649 934 657 936 659 933 100 { m20} R 661 935 671 933 679 933 702 935 714 935 729 935 733 935 747 934 752 933 754 935 750 936 775 935 776 932 804 932 806
 933 810 933 813 936 809 936 861 936 858 935 883 933 885 935 900 932 921 934 924 934 923 934 922 933 939 933 948 935 949 933 961 933 964 933 968 934 967 932 975 932 986 934 991 934 991 933 992 933 996 934 1017 933 1031 933 1040 933 1039 932 1047 934
 1050 933 1048 934 1055 933 1077 936 1082 936 1086 935 1099 933 1096 934 1110 935 1109 935 1111 932 1131 935 1141 933 1152 935 1156 935 1157 934 1163 932 1173 933 1179 932 1187 936 1192 934 1195 933 1203 934 1209 933 1216 933 1219 933 1226 932 1235
 934 1246 934 1251 933 1254 933 1252 933 1261 932 1265 935 1269 935 1283 933 1317 935 1324 933 1337 936 1344 936 1354 935 1359 935 1364 934 1377 934 1377 933 1385 934 1397 935 1458 935 1480 934 557 939 575 939 583 940 604 940 611 937 616 940 100 {
 m20} R 638 937 656 939 672 940 688 937 684 938 694 938 723 939 723 936 729 940 734 940 771 938 781 937 780 939 778 936 785 937 808 938 813 939 829 938 830 939 827 936 846 940 843 938 850 939 854 939 873 938 882 938 911 938 923 938 937 938 942 940
 942 937 948 939 952 938 952 939 953 938 960 937 962 939 966 937 965 940 970 937 981 938 981 940 1003 937 1010 939 1009 936 1024 940 1023 938 1025 938 1033 940 1039 940 1054 940 1052 940 1057 939 1063 939 1075 937 1080 940 1087 938 1088 936 1093 937
 1097 938 1100 939 1104 939 1109 938 1114 938 1125 938 1133 938 1150 938 1157 939 1159 937 1174 939 1190 937 1191 936 1194 939 1205 940 1226 939 1237 938 1263 939 1293 936 1298 937 1303 937 1308 937 1317 939 1342 939 1348 937 1352 939 1357 940 1363
 937 1370 936 1373 939 1379 939 1424 939 1441 937 1456 938 552 943 590 941 602 941 624 944 673 943 694 943 99 { m20} R 696 941 702 940 708 942 728 943 734 943 787 944 801 944 812 941 808 942 817 941 823 941 830 942 845 941 844 943 851 943 852 943 869
 940 883 943 880 943 914 942 915 942 924 942 923 941 924 943 924 943 923 940 936 943 943 943 944 942 951 943 954 942 958 943 958 940 962 940 961 941 992 940 990 944 1002 944 1006 942 1006 941 1007 941 1007 944 1014 944 1011 944 1013 944 1021 942 1023
 942 1029 943 1026 944 1033 943 1032 942 1032 941 1037 941 1043 944 1052 941 1056 944 1070 943 1083 943 1085 941 1093 942 1109 942 1112 943 1127 942 1135 943 1156 941 1160 943 1166 941 1169 941 1170 942 1170 944 1177 942 1180 942 1182 944 1199 942
 1198 944 1204 943 1210 941 1212 944 1217 942 1218 943 1229 941 1239 944 1250 943 1257 943 1252 941 1258 942 1258 941 1262 942 1278 943 1308 943 1312 941 1328 944 1366 941 1381 940 1377 943 1390 941 1407 943 1420 944 1495 942 1572 944 100 { m20} R
 1612 943 558 948 577 946 586 947 600 946 609 947 617 947 625 946 629 947 628 946 637 948 677 948 701 948 707 947 713 946 715 945 723 945 734 947 751 945 768 946 771 948 779 946 804 946 807 947 803 945 817 948 823 946 845 945 845 948 847 948 854 946
 861 945 883 946 883 945 897 945 902 946 915 947 926 947 934 948 935 948 959 947 962 946 965 948 973 947 992 946 1003 946 1013 947 1014 948 1023 945 1028 948 1044 948 1047 945 1054 947 1062 945 1068 947 1072 945 1078 946 1084 947 1084 945 1086 947
 1085 945 1092 946 1094 948 1102 948 1109 947 1115 945 1111 946 1115 948 1121 948 1118 945 1142 946 1154 947 1151 945 1157 948 1164 945 1165 945 1166 947 1170 947 1183 946 1195 947 1196 945 1198 945 1200 945 1202 946 1210 945 1218 947 1239 947 1256
 945 1261 948 1261 948 1281 945 1297 946 1306 946 1307 945 1316 948 1337 945 1372 946 1429 945 1590 947 545 950 100 { m20} R 557 949 583 950 590 951 592 951 600 952 636 952 645 952 642 952 649 952 667 950 688 949 707 951 715 951 712 952 726 951 723
 950 725 952 756 952 785 951 789 951 793 950 815 949 839 949 843 950 846 951 850 951 859 951 865 951 869 951 875 952 888 952 905 951 906 950 912 950 911 950 924 951 926 951 948 951 950 950 958 951 957 950 958 952 956 951 964 952 981 950 992 949 999
 952 1007 950 1007 949 1028 949 1032 952 1044 952 1051 950 1050 951 1050 951 1055 952 1057 951 1060 952 1058 951 1062 951 1067 949 1067 952 1068 949 1076 949 1076 951 1074 952 1076 951 1076 951 1088 950 1112 951 1114 950 1122 952 1126 952 1131 951
 1128 952 1129 951 1131 949 1135 952 1142 952 1147 951 1160 951 1160 952 1160 949 1166 952 1181 952 1197 949 1202 949 1201 949 1200 950 1203 952 1215 952 1243 951 1255 951 1271 949 1273 951 1283 950 1300 952 1313 951 1396 951 1421 952 100 { m20} R
 1508 949 1602 949 567 954 582 955 592 956 603 955 624 956 622 953 628 956 635 956 641 956 656 957 668 955 708 954 743 954 740 953 752 954 751 955 756 956 756 953 774 954 771 954 781 956 786 956 782 954 793 953 800 956 810 957 820 956 821 955 839 953
 843 954 851 954 853 955 862 955 865 954 872 953 874 953 874 954 874 957 878 953 883 956 885 953 898 956 921 956 931 957 936 955 941 956 948 955 967 955 982 954 992 954 987 956 993 955 1001 954 1005 953 1007 954 1004 955 1013 955 1012 956 1027 956
 1033 956 1042 955 1049 955 1051 956 1087 953 1084 956 1093 955 1100 955 1114 953 1115 955 1126 953 1136 953 1136 956 1138 956 1145 955 1155 953 1170 956 1177 955 1187 954 1189 956 1193 953 1198 953 1198 954 1210 955 1212 956 1254 954 1252 953 1282
 954 1292 955 1297 955 1355 953 1367 955 1383 954 1416 954 1446 956 1481 955 556 960 560 959 564 960 100 { m20} R 584 957 601 960 633 958 653 959 659 957 685 960 700 957 702 959 723 957 723 957 743 960 760 957 773 961 777 957 807 959 804 961 806 960
 810 957 822 960 826 958 833 957 840 958 876 959 888 959 889 958 886 958 895 957 911 958 907 960 914 958 922 957 926 961 928 959 930 957 937 959 947 960 953 958 962 957 969 957 989 959 993 958 1001 960 1001 957 1011 959 1023 958 1022 958 1036 957
 1055 957 1063 957 1066 958 1066 957 1072 957 1077 959 1087 957 1093 959 1096 957 1103 960 1111 958 1120 960 1119 961 1122 957 1127 960 1130 958 1137 958 1141 958 1142 961 1147 958 1153 957 1162 960 1164 957 1168 959 1179 959 1190 959 1195 957 1197
 958 1207 959 1215 960 1220 959 1219 959 1224 960 1241 960 1300 958 1307 960 1308 959 1333 960 1432 961 1459 957 547 962 594 964 595 964 601 962 608 961 638 962 671 964 679 963 707 963 712 964 718 961 716 961 727 963 100 { m20} R 761 965 801 963 802
 962 814 964 874 963 873 962 884 965 884 962 906 962 917 964 930 961 933 965 938 963 935 962 942 964 940 961 945 964 986 963 988 961 992 961 995 961 997 963 994 962 999 961 998 964 1007 963 1017 962 1014 962 1024 964 1033 961 1047 961 1063 962 1063
 962 1069 962 1070 964 1085 962 1105 962 1110 962 1110 962 1129 965 1131 964 1135 961 1142 963 1153 965 1170 961 1174 962 1173 961 1175 963 1180 961 1184 962 1193 964 1196 965 1208 962 1210 963 1217 962 1220 965 1236 962 1260 963 1257 964 1272 962
 1281 961 1287 963 1290 962 1300 961 1317 963 1320 962 1353 965 1413 964 1427 961 1449 963 1504 964 1531 962 591 966 633 968 637 969 642 966 649 968 653 966 659 967 683 966 680 968 690 966 698 969 703 967 716 966 728 967 728 966 735 967 762 965 765
 965 771 966 773 965 779 966 791 967 804 966 807 968 819 967 825 965 851 965 855 965 100 { m20} R 856 968 856 965 867 965 900 966 915 966 925 965 943 966 965 968 968 966 973 966 981 966 987 965 985 967 991 966 987 968 987 967 993 966 1006 968 1013
 968 1011 966 1012 968 1020 967 1020 966 1033 966 1043 967 1051 966 1081 966 1087 968 1085 969 1085 967 1110 967 1118 966 1125 968 1131 968 1135 966 1138 965 1150 967 1152 968 1154 968 1181 966 1185 965 1191 965 1189 967 1194 966 1212 966 1224 969
 1220 967 1229 968 1236 968 1291 966 1300 969 1306 968 1345 967 1352 968 1357 965 1398 968 1440 967 545 972 552 970 558 972 571 972 573 969 607 969 657 970 709 971 717 972 721 969 726 972 728 970 735 971 744 972 791 972 796 971 818 973 825 969 835
 969 847 970 866 970 870 970 870 973 874 969 883 971 892 973 900 971 903 969 910 971 933 970 935 972 947 971 953 972 961 972 963 970 967 972 967 969 971 971 984 971 986 969 999 970 1028 972 1034 971 100 { m20} R 1055 971 1066 972 1069 971 1077 971
 1076 972 1083 972 1085 971 1084 970 1086 971 1121 970 1122 969 1141 970 1146 970 1154 971 1152 969 1171 972 1192 970 1190 970 1191 970 1206 969 1218 972 1253 970 1266 971 1275 972 1314 970 1328 970 1344 971 1395 973 549 973 563 975 598 974 627 973
 653 975 666 973 676 974 709 976 717 973 720 975 725 976 739 976 740 973 742 973 755 977 783 975 789 975 811 976 813 974 827 975 825 976 832 975 837 976 870 976 888 974 898 975 896 974 905 974 904 973 906 975 911 975 920 977 936 974 938 976 961 977
 965 974 971 977 976 976 976 974 984 976 989 976 1020 976 1026 975 1026 977 1043 977 1066 977 1069 976 1077 974 1079 974 1082 974 1085 973 1097 973 1097 977 1103 974 1118 976 1120 973 1121 973 1125 976 1126 975 1148 974 1148 975 1159 975 1158 975
 1158 976 1160 975 1169 975 1182 974 1191 975 1207 976 1232 977 1240 974 1267 975 100 { m20} R 1274 974 1291 974 1320 977 1336 975 1340 975 1339 975 580 978 582 980 659 979 672 981 677 979 781 977 779 979 782 981 789 979 816 979 822 979 829 978 835
 978 844 977 848 981 857 979 859 980 869 980 870 979 877 978 890 979 890 978 892 980 905 978 905 977 907 981 909 981 922 979 937 980 940 977 948 979 946 980 953 979 956 980 957 980 958 978 964 978 966 979 967 978 970 977 1003 981 1014 978 1021 980
 1025 980 1044 979 1048 979 1053 980 1054 981 1062 980 1064 979 1071 981 1074 978 1105 980 1107 980 1125 979 1130 978 1135 979 1140 980 1161 978 1191 980 1214 980 1222 979 1225 978 1229 979 1229 978 1282 980 1288 981 561 982 565 984 589 982 619 982
 646 985 642 984 645 984 662 983 677 982 674 984 681 983 688 982 707 983 713 982 724 984 736 984 739 983 743 984 739 983 744 985 745 984 752 985 786 984 787 982 787 985 804 983 805 982 100 { m20} R 815 984 827 983 840 983 849 984 853 984 857 983 862
 984 858 981 878 984 880 982 882 984 882 984 906 984 918 984 930 984 937 983 943 984 949 983 974 981 975 982 981 984 982 981 982 982 982 982 984 983 1001 985 999 983 1007 984 1010 982 1012 984 1015 984 1014 982 1023 984 1021 982 1039 984 1042 984
 1064 982 1070 982 1099 984 1103 983 1117 984 1122 984 1125 982 1143 982 1160 984 1198 982 1212 982 1255 983 1287 982 1285 982 1301 982 1310 984 1648 983 592 987 606 986 644 988 651 986 655 987 701 986 728 989 745 988 757 987 773 987 784 985 790 988
 787 988 800 989 823 987 841 987 851 985 852 986 853 986 875 989 875 986 883 986 881 989 895 985 903 986 903 988 910 989 928 986 943 985 943 986 945 986 946 986 961 987 989 988 987 986 992 987 1013 987 1017 989 1014 986 1045 987 1043 989 1050 989
 1056 986 1058 985 1062 989 1067 986 1083 986 100 { m20} R 1083 987 1084 987 1110 986 1118 989 1125 989 1132 989 1137 988 1151 986 1169 985 1166 986 1180 986 1213 987 1292 989 1296 989 557 993 583 991 593 990 609 990 624 993 633 992 670 993 705 989
 746 990 749 992 750 990 763 990 763 993 768 990 835 992 861 989 881 992 889 990 905 990 906 993 922 992 947 993 952 990 955 992 961 990 982 993 991 991 988 993 1010 993 1010 991 1018 993 1023 993 1026 992 1036 991 1048 993 1051 990 1049 992 1054 991
 1055 993 1063 993 1070 989 1070 991 1083 992 1090 993 1095 989 1104 990 1103 990 1157 992 1159 990 1163 993 1162 993 1166 993 1170 990 1190 992 1202 990 1227 993 1235 990 1304 992 1383 990 553 995 550 994 571 996 578 995 624 995 677 997 680 997 716
 993 718 996 752 995 774 996 799 997 806 994 834 995 845 994 850 995 855 993 857 997 870 995 912 993 934 994 934 995 945 997 956 996 974 996 978 993 1004 996 100 { m20} R 1009 996 1019 996 1019 994 1026 994 1029 996 1028 997 1048 993 1053 995 1055
 995 1059 997 1064 997 1063 994 1077 995 1077 997 1086 997 1104 996 1101 996 1105 997 1106 997 1139 996 1158 997 1212 995 1224 997 1248 994 1257 997 1257 996 1313 997 1326 997 568 1001 600 1001 600 1001 629 998 631 1001 643 998 682 998 693 1000 721
 999 779 999 781 999 797 1000 829 998 825 1001 832 998 832 1000 847 998 855 998 868 998 894 999 896 998 900 1001 903 1000 916 1001 921 998 927 1001 953 1001 958 999 959 999 957 998 970 999 984 1000 988 999 1012 1001 1026 998 1038 999 1037 998 1052
 999 1063 1000 1072 1001 1069 1000 1090 1002 1104 999 1137 999 1146 999 1152 1001 1168 1001 1211 998 1224 998 1236 1001 1247 1001 1261 1000 544 1003 665 1003 667 1002 695 1005 747 1005 761 1004 764 1003 813 1004 811 1006 825 1005 848 1002 853 1003
 862 1004 863 1002 866 1005 877 1004 880 1005 891 1002 891 1002 919 1002 100 { m20} R 922 1003 927 1004 947 1003 949 1005 961 1002 973 1005 976 1004 989 1003 994 1003 1012 1003 1038 1002 1039 1006 1044 1003 1041 1004 1050 1004 1076 1002 1081 1003
 1086 1002 1091 1003 1109 1005 1115 1002 1151 1006 1152 1003 1233 1002 1246 1006 1345 1005 593 1006 594 1009 715 1008 754 1007 757 1006 806 1008 810 1009 822 1008 848 1008 859 1007 907 1009 906 1008 922 1009 923 1008 929 1007 932 1008 943 1008 957
 1009 961 1009 965 1008 980 1008 993 1008 1014 1009 1100 1009 1107 1008 1107 1006 1144 1006 1169 1009 1191 1008 1202 1006 1240 1006 565 1012 573 1012 578 1011 664 1010 676 1013 699 1012 709 1011 739 1011 741 1011 773 1012 789 1011 812 1011 828 1010
 845 1012 855 1011 853 1010 888 1014 891 1012 914 1010 970 1010 982 1012 1002 1012 1036 1013 1048 1011 1057 1011 1052 1013 1088 1012 1086 1010 1116 1013 1153 1011 1163 1012 1193 1011 1219 1014 583 1017 584 1016 588 1014 628 1015 701 1017 753 1016 825
 1018 840 1017 843 1018 868 1018 100 { m20} R 908 1015 924 1016 928 1016 937 1014 992 1015 1011 1017 1012 1015 1028 1018 1032 1014 1042 1016 1130 1015 1134 1015 1159 1017 1164 1016 1189 1017 572 1020 597 1018 600 1019 645 1019 660 1019 674 1021 684
 1021 695 1018 801 1021 805 1018 827 1022 826 1021 913 1022 945 1021 955 1018 964 1022 990 1022 1027 1019 1033 1022 1087 1021 1108 1020 1136 1018 1156 1019 1225 1019 1309 1021 554 1026 623 1026 664 1023 765 1025 776 1025 814 1024 829 1026 827 1024
 833 1026 896 1023 901 1024 918 1025 927 1025 922 1024 945 1025 958 1025 1015 1023 1032 1025 1139 1024 1169 1022 1202 1024 1306 1025 605 1029 674 1028 743 1026 745 1027 767 1028 772 1028 801 1027 820 1030 905 1027 911 1030 941 1027 951 1029 965 1029
 972 1028 976 1027 1002 1027 1006 1030 1018 1027 1024 1026 1033 1027 1038 1027 1038 1029 1042 1027 1046 1026 1077 1029 1117 1027 1128 1027 1377 1028 1399 1026 611 1031 643 1033 713 1030 769 1032 867 1032 900 1033 901 1031 934 1033 985 1031 100 { m20}
 R 1013 1031 1032 1031 1085 1031 1123 1034 1151 1032 668 1037 719 1035 803 1035 903 1036 1010 1035 1092 1036 1705 1037 603 1041 740 1040 773 1039 786 1041 789 1041 795 1039 900 1042 897 1041 897 1042 911 1040 912 1042 968 1042 980 1039 1019 1038 1049
 1039 1078 1039 1106 1040 1116 1040 1251 1040 578 1044 619 1045 723 1045 801 1043 812 1045 910 1043 909 1043 914 1044 934 1044 970 1043 1017 1043 1021 1044 1069 1045 944 1050 965 1050 1031 1050 623 1054 944 1054 1113 1053 575 1057 835 1056 794 1060
 892 1063 637 1063 882 1064 1042 1063 1065 1065 640 1068 653 1068 821 1068 1094 1068 724 1079 778 1078 946 1078 1584 1078 946 1080 747 1087 913 1086 1079 1085 1000 1091 814 1093 911 1103 1034 1116 788 1123 1098 1138 1015 1142 914 1155 918 1157 1218
 1155 811 1162 1254 1168 1213 1190 695 1209 1230 1231 1267 1283 1188 1328 1419 1329 701 1367 89 { m20} R 408 278 m 1633 X s
 gsave  2268 1544 0 0 C 1749.66 84.7135 t 0 r /Helvetica findfont 101.005 sf 0 0 m ( \(MeV\)) show NC gr 
 gsave  2268 1544 0 0 C 1567.2 55.3896 t 0 r /Helvetica findfont 68.4225 sf 0 0 m (SCalo) show NC gr 
 gsave  2268 1544 0 0 C 1505.29 84.7135 t 0 r /Helvetica findfont 101.005 sf 0 0 m (E) show NC gr  483 311 m -33 Y s[ 4 8] 0 sd 483 1390 m -1112 Y s[  ] 0 sd 546 295 m -17 Y s 608 295 m -17 Y s 671 295 m -17 Y s 734 311 m -33 Y s[ 4 8] 0 sd 734 1390
 m -1112 Y s[  ] 0 sd 797 295 m -17 Y s 860 295 m -17 Y s 923 295 m -17 Y s 986 311 m -33 Y s[ 4 8] 0 sd 986 1390 m -1112 Y s[  ] 0 sd 1049 295 m -17 Y s 1111 295 m -17 Y s 1174 295 m -17 Y s 1237 311 m -33 Y s[ 4 8] 0 sd 1237 1390 m -1112 Y s[  ] 0
 sd 1300 295 m -17 Y s 1363 295 m -17 Y s 1426 295 m -17 Y s 1489 311 m -33 Y s[ 4 8] 0 sd 1489 1390 m -1112 Y s[  ] 0 sd 1551 295 m -17 Y s 1614 295 m -17 Y s 1677 295 m -17 Y s 1740 311 m -33 Y s[ 4 8] 0 sd 1740 1390 m -1112 Y s[  ] 0 sd 1803 295 m
 -17 Y s 1866 295 m -17 Y s 1929 295 m -17 Y s 1992 311 m -33 Y s[ 4 8] 0 sd 1992 1390 m -1112 Y s[  ] 0 sd 483 311 m -33 Y s[ 4 8] 0 sd 483 1390 m -1112 Y s[  ] 0 sd 420 295 m -17 Y s 1992 311 m -33 Y s[ 4 8] 0 sd 1992 1390 m -1112 Y s
 gsave  2268 1544 0 0 C 443.117 208.526 t 0 r /Helvetica findfont 71.6807 sf 0 0 m (20) show NC gr 
 gsave  2268 1544 0 0 C 693.999 208.526 t 0 r /Helvetica findfont 71.6807 sf 0 0 m (40) show NC gr 
 gsave  2268 1544 0 0 C 944.882 208.526 t 0 r /Helvetica findfont 71.6807 sf 0 0 m (60) show NC gr 
 gsave  2268 1544 0 0 C 1195.76 208.526 t 0 r /Helvetica findfont 71.6807 sf 0 0 m (80) show NC gr 
 gsave  2268 1544 0 0 C 1427.1 208.526 t 0 r /Helvetica findfont 71.6807 sf 0 0 m (100) show NC gr 
 gsave  2268 1544 0 0 C 1681.24 208.526 t 0 r /Helvetica findfont 71.6807 sf 0 0 m (120) show NC gr 
 gsave  2268 1544 0 0 C 1932.12 208.526 t 0 r /Helvetica findfont 71.6807 sf 0 0 m (140) show NC gr [  ] 0 sd 408 278 m 1112 Y s
 gsave  2268 1544 0 0 C 175.944 1101.28 t 90 r /Helvetica findfont 101.005 sf 0 0 m ( \(MeV\)) show NC gr 
 gsave  2268 1544 0 0 C 205.267 918.816 t 90 r /Helvetica findfont 68.4225 sf 0 0 m (BCalo) show NC gr 
 gsave  2268 1544 0 0 C 175.944 856.91 t 90 r /Helvetica findfont 101.005 sf 0 0 m (E) show NC gr  457 278 m -49 X s[ 4 8] 0 sd 2041 278 m -1633 X s[  ] 0 sd 433 306 m -25 X s 433 333 m -25 X s 433 361 m -25 X s 457 389 m -49 X s[ 4 8] 0 sd 2041 389
 m -1633 X s[  ] 0 sd 433 417 m -25 X s 433 444 m -25 X s 433 472 m -25 X s 457 500 m -49 X s[ 4 8] 0 sd 2041 500 m -1633 X s[  ] 0 sd 433 528 m -25 X s 433 555 m -25 X s 433 583 m -25 X s 457 611 m -49 X s[ 4 8] 0 sd 2041 611 m -1633 X s[  ] 0 sd
 433 639 m -25 X s 433 666 m -25 X s 433 694 m -25 X s 457 722 m -49 X s[ 4 8] 0 sd 2041 722 m -1633 X s[  ] 0 sd 433 750 m -25 X s 433 777 m -25 X s 433 805 m -25 X s 457 833 m -49 X s[ 4 8] 0 sd 2041 833 m -1633 X s[  ] 0 sd 433 861 m -25 X s 433
 888 m -25 X s 433 916 m -25 X s 457 944 m -49 X s[ 4 8] 0 sd 2041 944 m -1633 X s[  ] 0 sd 433 972 m -25 X s 433 999 m -25 X s 433 1027 m -25 X s 457 1055 m -49 X s[ 4 8] 0 sd 2041 1055 m -1633 X s[  ] 0 sd 433 1083 m -25 X s 433 1110 m -25 X s 433
 1138 m -25 X s 457 1166 m -49 X s[ 4 8] 0 sd 2041 1166 m -1633 X s[  ] 0 sd 433 1194 m -25 X s 433 1221 m -25 X s 433 1249 m -25 X s 457 1277 m -49 X s[ 4 8] 0 sd 2041 1277 m -1633 X s[  ] 0 sd 433 1305 m -25 X s 433 1332 m -25 X s 433 1360 m -25 X
 s 457 1388 m -49 X s[ 4 8] 0 sd 2041 1388 m -1633 X s[  ] 0 sd 457 1388 m -49 X s[ 4 8] 0 sd 2041 1388 m -1633 X s
 gsave  2268 1544 0 0 C 355.145 254.141 t 0 r /Helvetica findfont 71.6807 sf 0 0 m (0) show NC gr 
 gsave  2268 1544 0 0 C 316.047 364.92 t 0 r /Helvetica findfont 71.6807 sf 0 0 m (20) show NC gr 
 gsave  2268 1544 0 0 C 316.047 475.699 t 0 r /Helvetica findfont 71.6807 sf 0 0 m (40) show NC gr 
 gsave  2268 1544 0 0 C 316.047 586.478 t 0 r /Helvetica findfont 71.6807 sf 0 0 m (60) show NC gr 
 gsave  2268 1544 0 0 C 316.047 697.258 t 0 r /Helvetica findfont 71.6807 sf 0 0 m (80) show NC gr 
 gsave  2268 1544 0 0 C 276.948 808.037 t 0 r /Helvetica findfont 71.6807 sf 0 0 m (100) show NC gr 
 gsave  2268 1544 0 0 C 276.948 918.816 t 0 r /Helvetica findfont 71.6807 sf 0 0 m (120) show NC gr 
 gsave  2268 1544 0 0 C 276.948 1029.6 t 0 r /Helvetica findfont 71.6807 sf 0 0 m (140) show NC gr 
 gsave  2268 1544 0 0 C 276.948 1140.37 t 0 r /Helvetica findfont 71.6807 sf 0 0 m (160) show NC gr 
 gsave  2268 1544 0 0 C 276.948 1251.15 t 0 r /Helvetica findfont 71.6807 sf 0 0 m (180) show NC gr 
 gsave  2268 1544 0 0 C 276.948 1361.93 t 0 r /Helvetica findfont 71.6807 sf 0 0 m (200) show NC gr [  ] 0 sd 1 1 1 c 680 309 1361 1081 bf black 1361 1081 m 680 X s 2041 1081 m 309 Y s 2041 1390 m -680 X s 1361 1390 m -309 Y s
 gsave  2268 1544 0 0 C 1394.52 1202.28 t 0 r /Helvetica findfont 94.4882 sf 0 0 m (Entries ) show NC gr 
 gsave  2268 1544 0 0 C 1772.47 1202.28 t 0 r /Helvetica findfont 94.4882 sf 0 0 m ( 9484) show NC gr  1 1 1 c 680 309 1361 1081 bf black 1361 1081 m 680 X s 2041 1081 m 309 Y s 2041 1390 m -680 X s 1361 1390 m -309 Y s
 gsave  2268 1544 0 0 C 1394.52 1202.28 t 0 r /Helvetica findfont 94.4882 sf 0 0 m (Entries ) show NC gr 
 gsave  2268 1544 0 0 C 1772.47 1202.28 t 0 r /Helvetica findfont 94.4882 sf 0 0 m ( 9484) show NC gr 
 gr  gr showpage
end
%%EOF
