\relax 
\@writefile{toc}{\contentsline {section}{\numberline {1}DAQ}{1}}
\@writefile{toc}{\contentsline {subsection}{\numberline {1.1}GUI of the DAQ}{1}}
\@writefile{lof}{\contentsline {figure}{\numberline {1}{\ignorespaces Scatch of the DAQ GUI}}{1}}
\@writefile{toc}{\contentsline {paragraph}{1)}{1}}
\@writefile{toc}{\contentsline {paragraph}{2)}{2}}
\@writefile{toc}{\contentsline {paragraph}{3)}{2}}
\@writefile{toc}{\contentsline {paragraph}{4)}{2}}
\@writefile{toc}{\contentsline {paragraph}{5)}{2}}
\@writefile{toc}{\contentsline {paragraph}{6)}{2}}
\@writefile{toc}{\contentsline {paragraph}{7)}{2}}
\@writefile{toc}{\contentsline {paragraph}{8)}{2}}
\@writefile{toc}{\contentsline {paragraph}{9)}{2}}
\@writefile{toc}{\contentsline {paragraph}{10)}{2}}
\@writefile{toc}{\contentsline {subsection}{\numberline {1.2}Data taking from the logic boxes}{3}}
\@writefile{toc}{\contentsline {subsection}{\numberline {1.3}Converting and writting of the data}{3}}
\@writefile{lot}{\contentsline {table}{\numberline {1}{\ignorespaces Short scatch of the binary file format}}{3}}
\newlabel{binaryFileFormat}{{1}{3}}
